<?xml version="1.0" encoding="UTF-8" standalone="no"?>
<!-- Created with Inkscape (http://www.inkscape.org/) -->
<svg xmlns:dc="http://purl.org/dc/elements/1.1/" xmlns:cc="http://creativecommons.org/ns#" xmlns:rdf="http://www.w3.org/1999/02/22-rdf-syntax-ns#" xmlns:svg="http://www.w3.org/2000/svg" xmlns="http://www.w3.org/2000/svg" xmlns:inkscape="http://www.inkscape.org/namespaces/inkscape" version="1.1" width="800pt" height="600pt" viewBox="0 0 800 600" id="svg2">

  <metadata id="metadata7">
    <rdf:RDF>
      <cc:Work rdf:about="">
        <dc:format>image/svg+xml</dc:format>
        <dc:type rdf:resource="http://purl.org/dc/dcmitype/StillImage"/>
        <dc:title>flag</dc:title>
        <dc:date>09/25/2013</dc:date>
        <dc:creator>
          <cc:Agent>
            <dc:title>edited by Paul Sherman</dc:title>
          </cc:Agent>
        </dc:creator>
        <dc:rights>
          <cc:Agent>
            <dc:title/>
          </cc:Agent>
        </dc:rights>
        <dc:publisher>
          <cc:Agent>
            <dc:title>WPClipart</dc:title>
          </cc:Agent>
        </dc:publisher>
        <dc:subject>
          <rdf:Bag>
            <rdf:li>country</rdf:li>
            <rdf:li>flag</rdf:li>
          </rdf:Bag>
        </dc:subject>
        <dc:description/>
        <cc:license rdf:resource="http://creativecommons.org/licenses/publicdomain/"/>
      </cc:Work>
      <cc:License rdf:about="http://creativecommons.org/licenses/publicdomain/">
        <cc:permits rdf:resource="http://creativecommons.org/ns#Reproduction"/>
        <cc:permits rdf:resource="http://creativecommons.org/ns#Distribution"/>
        <cc:permits rdf:resource="http://creativecommons.org/ns#DerivativeWorks"/>
      </cc:License>
    </rdf:RDF>
  </metadata>
  <defs id="defs525"/>
  <g id="surface1">
    <rect width="800" height="600" x="0" y="0" id="rect5" style="fill:#ffffff;fill-opacity:1;stroke:none"/>
    <path d="m 0,0 800,0 0,46.152344 -800,0 z m 0,0" inkscape:connector-curvature="0" id="path7" style="fill:#b01e33;fill-opacity:1;fill-rule:nonzero;stroke:none"/>
    <path d="m 0,92.308594 800,0 0,46.152346 -800,0 z m 0,0" inkscape:connector-curvature="0" id="path9" style="fill:#b01e33;fill-opacity:1;fill-rule:nonzero;stroke:none"/>
    <path d="m 0,184.61328 800,0 0,46.16016 -800,0 z m 0,0" inkscape:connector-curvature="0" id="path11" style="fill:#b01e33;fill-opacity:1;fill-rule:nonzero;stroke:none"/>
    <path d="m 0,276.92187 800,0 0,46.15625 -800,0 z m 0,0" inkscape:connector-curvature="0" id="path13" style="fill:#b01e33;fill-opacity:1;fill-rule:nonzero;stroke:none"/>
    <path d="m 0,369.22656 800,0 0,46.16016 -800,0 z m 0,0" inkscape:connector-curvature="0" id="path15" style="fill:#b01e33;fill-opacity:1;fill-rule:nonzero;stroke:none"/>
    <path d="m 0,461.53906 800,0 0,46.15235 -800,0 z m 0,0" inkscape:connector-curvature="0" id="path17" style="fill:#b01e33;fill-opacity:1;fill-rule:nonzero;stroke:none"/>
    <path d="m 0,553.84766 800,0 L 800,600 0,600 z m 0,0" inkscape:connector-curvature="0" id="path19" style="fill:#b01e33;fill-opacity:1;fill-rule:nonzero;stroke:none"/>
    <path d="m 0,0 320,0 0,323.07812 -320,0 z m 0,0" inkscape:connector-curvature="0" id="path21" style="fill:#38386e;fill-opacity:1;fill-rule:nonzero;stroke:none"/>
    <path d="m 19.746094,46.890625 4.214844,-18.484375 6.816406,7.0625 z m 0,0" inkscape:connector-curvature="0" id="path23" style="fill:#ffffff;fill-opacity:1;fill-rule:nonzero;stroke:none"/>
    <path d="m 15.035156,26.226562 13.636719,0 -2.605469,11.425782 z m 0,0" inkscape:connector-curvature="0" id="path25" style="fill:#ffffff;fill-opacity:1;fill-rule:nonzero;stroke:none"/>
    <path d="m 27.367188,13.457031 4.214843,18.480469 -8.425781,0 z m 0,0" inkscape:connector-curvature="0" id="path27" style="fill:#ffffff;fill-opacity:1;fill-rule:nonzero;stroke:none"/>
    <path d="M 39.703125,26.226562 28.671875,37.652344 26.066406,26.226562 z m 0,0" inkscape:connector-curvature="0" id="path29" style="fill:#ffffff;fill-opacity:1;fill-rule:nonzero;stroke:none"/>
    <path d="m 34.992188,46.890625 -11.03125,-11.421875 6.816406,-7.0625 z m 0,0" inkscape:connector-curvature="0" id="path31" style="fill:#ffffff;fill-opacity:1;fill-rule:nonzero;stroke:none"/>
    <path d="m 72.796875,46.890625 4.214844,-18.484375 6.816406,7.0625 z m 0,0" inkscape:connector-curvature="0" id="path33" style="fill:#ffffff;fill-opacity:1;fill-rule:nonzero;stroke:none"/>
    <path d="m 68.085938,26.226562 13.636718,0 -2.605468,11.425782 z m 0,0" inkscape:connector-curvature="0" id="path35" style="fill:#ffffff;fill-opacity:1;fill-rule:nonzero;stroke:none"/>
    <path d="m 80.421875,13.457031 4.210937,18.480469 -8.425781,0 z m 0,0" inkscape:connector-curvature="0" id="path37" style="fill:#ffffff;fill-opacity:1;fill-rule:nonzero;stroke:none"/>
    <path d="M 92.753906,26.226562 81.722656,37.652344 79.117188,26.226562 z m 0,0" inkscape:connector-curvature="0" id="path39" style="fill:#ffffff;fill-opacity:1;fill-rule:nonzero;stroke:none"/>
    <path d="m 88.042969,46.890625 -11.03125,-11.421875 6.816406,-7.0625 z m 0,0" inkscape:connector-curvature="0" id="path41" style="fill:#ffffff;fill-opacity:1;fill-rule:nonzero;stroke:none"/>
    <path d="m 125.85156,46.890625 4.21485,-18.484375 6.8164,7.0625 z m 0,0" inkscape:connector-curvature="0" id="path43" style="fill:#ffffff;fill-opacity:1;fill-rule:nonzero;stroke:none"/>
    <path d="m 121.14063,26.226562 13.63671,0 -2.60547,11.425782 z m 0,0" inkscape:connector-curvature="0" id="path45" style="fill:#ffffff;fill-opacity:1;fill-rule:nonzero;stroke:none"/>
    <path d="m 133.47266,13.457031 4.21484,18.480469 -8.42578,0 z m 0,0" inkscape:connector-curvature="0" id="path47" style="fill:#ffffff;fill-opacity:1;fill-rule:nonzero;stroke:none"/>
    <path d="m 145.80859,26.226562 -11.03125,11.425782 -2.60547,-11.425782 z m 0,0" inkscape:connector-curvature="0" id="path49" style="fill:#ffffff;fill-opacity:1;fill-rule:nonzero;stroke:none"/>
    <path d="m 141.09766,46.890625 -11.03125,-11.421875 6.8164,-7.0625 z m 0,0" inkscape:connector-curvature="0" id="path51" style="fill:#ffffff;fill-opacity:1;fill-rule:nonzero;stroke:none"/>
    <path d="m 178.90234,46.890625 4.21485,-18.484375 6.8164,7.0625 z m 0,0" inkscape:connector-curvature="0" id="path53" style="fill:#ffffff;fill-opacity:1;fill-rule:nonzero;stroke:none"/>
    <path d="m 174.19141,26.226562 13.63671,0 -2.60546,11.425782 z m 0,0" inkscape:connector-curvature="0" id="path55" style="fill:#ffffff;fill-opacity:1;fill-rule:nonzero;stroke:none"/>
    <path d="m 186.52734,13.457031 4.21094,18.480469 -8.42578,0 z m 0,0" inkscape:connector-curvature="0" id="path57" style="fill:#ffffff;fill-opacity:1;fill-rule:nonzero;stroke:none"/>
    <path d="m 198.85937,26.226562 -11.03125,11.425782 -2.60546,-11.425782 z m 0,0" inkscape:connector-curvature="0" id="path59" style="fill:#ffffff;fill-opacity:1;fill-rule:nonzero;stroke:none"/>
    <path d="m 194.14844,46.890625 -11.03125,-11.421875 6.8164,-7.0625 z m 0,0" inkscape:connector-curvature="0" id="path61" style="fill:#ffffff;fill-opacity:1;fill-rule:nonzero;stroke:none"/>
    <path d="m 231.95703,46.890625 4.21484,-18.484375 6.81641,7.0625 z m 0,0" inkscape:connector-curvature="0" id="path63" style="fill:#ffffff;fill-opacity:1;fill-rule:nonzero;stroke:none"/>
    <path d="m 227.24609,26.226562 13.63672,0 -2.60547,11.425782 z m 0,0" inkscape:connector-curvature="0" id="path65" style="fill:#ffffff;fill-opacity:1;fill-rule:nonzero;stroke:none"/>
    <path d="m 239.57812,13.457031 4.21485,18.480469 -8.42578,0 z m 0,0" inkscape:connector-curvature="0" id="path67" style="fill:#ffffff;fill-opacity:1;fill-rule:nonzero;stroke:none"/>
    <path d="m 251.91406,26.226562 -11.03125,11.425782 -2.60547,-11.425782 z m 0,0" inkscape:connector-curvature="0" id="path69" style="fill:#ffffff;fill-opacity:1;fill-rule:nonzero;stroke:none"/>
    <path d="m 247.20312,46.890625 -11.03125,-11.421875 6.81641,-7.0625 z m 0,0" inkscape:connector-curvature="0" id="path71" style="fill:#ffffff;fill-opacity:1;fill-rule:nonzero;stroke:none"/>
    <path d="m 285.00781,46.890625 4.21485,-18.484375 6.8164,7.0625 z m 0,0" inkscape:connector-curvature="0" id="path73" style="fill:#ffffff;fill-opacity:1;fill-rule:nonzero;stroke:none"/>
    <path d="m 280.29687,26.226562 13.63672,0 -2.60547,11.425782 z m 0,0" inkscape:connector-curvature="0" id="path75" style="fill:#ffffff;fill-opacity:1;fill-rule:nonzero;stroke:none"/>
    <path d="m 292.63281,13.457031 4.21094,18.480469 -8.42578,0 z m 0,0" inkscape:connector-curvature="0" id="path77" style="fill:#ffffff;fill-opacity:1;fill-rule:nonzero;stroke:none"/>
    <path d="m 304.96484,26.226562 -11.03125,11.425782 -2.60547,-11.425782 z m 0,0" inkscape:connector-curvature="0" id="path79" style="fill:#ffffff;fill-opacity:1;fill-rule:nonzero;stroke:none"/>
    <path d="m 300.25391,46.890625 -11.03125,-11.421875 6.8164,-7.0625 z m 0,0" inkscape:connector-curvature="0" id="path81" style="fill:#ffffff;fill-opacity:1;fill-rule:nonzero;stroke:none"/>
    <path d="m 46.273438,79.289062 4.210937,-18.476562 6.820313,7.054688 z m 0,0" inkscape:connector-curvature="0" id="path83" style="fill:#ffffff;fill-opacity:1;fill-rule:nonzero;stroke:none"/>
    <path d="m 41.5625,58.628906 13.632812,0 -2.601562,11.417969 z m 0,0" inkscape:connector-curvature="0" id="path85" style="fill:#ffffff;fill-opacity:1;fill-rule:nonzero;stroke:none"/>
    <path d="m 53.894531,45.859375 4.214844,18.480469 -8.429687,0 z m 0,0" inkscape:connector-curvature="0" id="path87" style="fill:#ffffff;fill-opacity:1;fill-rule:nonzero;stroke:none"/>
    <path d="M 66.226562,58.628906 55.195312,70.046875 52.59375,58.628906 z m 0,0" inkscape:connector-curvature="0" id="path89" style="fill:#ffffff;fill-opacity:1;fill-rule:nonzero;stroke:none"/>
    <path d="M 61.515625,79.289062 50.484375,67.867188 57.304688,60.8125 z m 0,0" inkscape:connector-curvature="0" id="path91" style="fill:#ffffff;fill-opacity:1;fill-rule:nonzero;stroke:none"/>
    <path d="m 99.324219,79.289062 4.214841,-18.476562 6.81641,7.054688 z m 0,0" inkscape:connector-curvature="0" id="path93" style="fill:#ffffff;fill-opacity:1;fill-rule:nonzero;stroke:none"/>
    <path d="m 94.613281,58.628906 13.636719,0 -2.60547,11.417969 z m 0,0" inkscape:connector-curvature="0" id="path95" style="fill:#ffffff;fill-opacity:1;fill-rule:nonzero;stroke:none"/>
    <path d="m 106.94922,45.859375 4.21094,18.480469 -8.42578,0 z m 0,0" inkscape:connector-curvature="0" id="path97" style="fill:#ffffff;fill-opacity:1;fill-rule:nonzero;stroke:none"/>
    <path d="M 119.28125,58.628906 108.25,70.046875 105.64453,58.628906 z m 0,0" inkscape:connector-curvature="0" id="path99" style="fill:#ffffff;fill-opacity:1;fill-rule:nonzero;stroke:none"/>
    <path d="M 114.57031,79.289062 103.53906,67.867188 110.35547,60.8125 z m 0,0" inkscape:connector-curvature="0" id="path101" style="fill:#ffffff;fill-opacity:1;fill-rule:nonzero;stroke:none"/>
    <path d="m 152.37891,79.289062 4.21093,-18.476562 6.82032,7.054688 z m 0,0" inkscape:connector-curvature="0" id="path103" style="fill:#ffffff;fill-opacity:1;fill-rule:nonzero;stroke:none"/>
    <path d="m 147.66797,58.628906 13.63281,0 -2.60156,11.417969 z m 0,0" inkscape:connector-curvature="0" id="path105" style="fill:#ffffff;fill-opacity:1;fill-rule:nonzero;stroke:none"/>
    <path d="m 160,45.859375 4.21484,18.480469 -8.42968,0 z m 0,0" inkscape:connector-curvature="0" id="path107" style="fill:#ffffff;fill-opacity:1;fill-rule:nonzero;stroke:none"/>
    <path d="m 172.33203,58.628906 -11.03125,11.417969 -2.60156,-11.417969 z m 0,0" inkscape:connector-curvature="0" id="path109" style="fill:#ffffff;fill-opacity:1;fill-rule:nonzero;stroke:none"/>
    <path d="M 167.62109,79.289062 156.58984,67.867188 163.41016,60.8125 z m 0,0" inkscape:connector-curvature="0" id="path111" style="fill:#ffffff;fill-opacity:1;fill-rule:nonzero;stroke:none"/>
    <path d="m 205.42969,79.289062 4.21484,-18.476562 6.81641,7.054688 z m 0,0" inkscape:connector-curvature="0" id="path113" style="fill:#ffffff;fill-opacity:1;fill-rule:nonzero;stroke:none"/>
    <path d="m 200.71875,58.628906 13.63672,0 -2.60547,11.417969 z m 0,0" inkscape:connector-curvature="0" id="path115" style="fill:#ffffff;fill-opacity:1;fill-rule:nonzero;stroke:none"/>
    <path d="m 213.05078,45.859375 4.21484,18.480469 -8.42578,0 z m 0,0" inkscape:connector-curvature="0" id="path117" style="fill:#ffffff;fill-opacity:1;fill-rule:nonzero;stroke:none"/>
    <path d="M 225.38672,58.628906 214.35547,70.046875 211.75,58.628906 z m 0,0" inkscape:connector-curvature="0" id="path119" style="fill:#ffffff;fill-opacity:1;fill-rule:nonzero;stroke:none"/>
    <path d="M 220.67578,79.289062 209.64453,67.867188 216.46094,60.8125 z m 0,0" inkscape:connector-curvature="0" id="path121" style="fill:#ffffff;fill-opacity:1;fill-rule:nonzero;stroke:none"/>
    <path d="m 258.48437,79.289062 4.21094,-18.476562 6.82031,7.054688 z m 0,0" inkscape:connector-curvature="0" id="path123" style="fill:#ffffff;fill-opacity:1;fill-rule:nonzero;stroke:none"/>
    <path d="m 253.77344,58.628906 13.63281,0 -2.60156,11.417969 z m 0,0" inkscape:connector-curvature="0" id="path125" style="fill:#ffffff;fill-opacity:1;fill-rule:nonzero;stroke:none"/>
    <path d="m 266.10547,45.859375 4.21484,18.480469 -8.42969,0 z m 0,0" inkscape:connector-curvature="0" id="path127" style="fill:#ffffff;fill-opacity:1;fill-rule:nonzero;stroke:none"/>
    <path d="m 278.4375,58.628906 -11.03125,11.417969 -2.60156,-11.417969 z m 0,0" inkscape:connector-curvature="0" id="path129" style="fill:#ffffff;fill-opacity:1;fill-rule:nonzero;stroke:none"/>
    <path d="M 273.72656,79.289062 262.69531,67.867188 269.51562,60.8125 z m 0,0" inkscape:connector-curvature="0" id="path131" style="fill:#ffffff;fill-opacity:1;fill-rule:nonzero;stroke:none"/>
    <path d="m 19.746094,111.6875 4.214844,-18.480469 6.816406,7.062499 z m 0,0" inkscape:connector-curvature="0" id="path133" style="fill:#ffffff;fill-opacity:1;fill-rule:nonzero;stroke:none"/>
    <path d="m 15.035156,91.023438 13.636719,0 -2.605469,11.429692 z m 0,0" inkscape:connector-curvature="0" id="path135" style="fill:#ffffff;fill-opacity:1;fill-rule:nonzero;stroke:none"/>
    <path d="m 27.367188,78.257812 4.214843,18.480469 -8.425781,0 z m 0,0" inkscape:connector-curvature="0" id="path137" style="fill:#ffffff;fill-opacity:1;fill-rule:nonzero;stroke:none"/>
    <path d="M 39.703125,91.023438 28.671875,102.45313 26.066406,91.023438 z m 0,0" inkscape:connector-curvature="0" id="path139" style="fill:#ffffff;fill-opacity:1;fill-rule:nonzero;stroke:none"/>
    <path d="m 34.992188,111.6875 -11.03125,-11.41797 6.816406,-7.062499 z m 0,0" inkscape:connector-curvature="0" id="path141" style="fill:#ffffff;fill-opacity:1;fill-rule:nonzero;stroke:none"/>
    <path d="m 72.796875,111.6875 4.214844,-18.480469 6.816406,7.062499 z m 0,0" inkscape:connector-curvature="0" id="path143" style="fill:#ffffff;fill-opacity:1;fill-rule:nonzero;stroke:none"/>
    <path d="m 68.085938,91.023438 13.636718,0 -2.605468,11.429692 z m 0,0" inkscape:connector-curvature="0" id="path145" style="fill:#ffffff;fill-opacity:1;fill-rule:nonzero;stroke:none"/>
    <path d="m 80.421875,78.257812 4.210937,18.480469 -8.425781,0 z m 0,0" inkscape:connector-curvature="0" id="path147" style="fill:#ffffff;fill-opacity:1;fill-rule:nonzero;stroke:none"/>
    <path d="M 92.753906,91.023438 81.722656,102.45313 79.117188,91.023438 z m 0,0" inkscape:connector-curvature="0" id="path149" style="fill:#ffffff;fill-opacity:1;fill-rule:nonzero;stroke:none"/>
    <path d="m 88.042969,111.6875 -11.03125,-11.41797 6.816406,-7.062499 z m 0,0" inkscape:connector-curvature="0" id="path151" style="fill:#ffffff;fill-opacity:1;fill-rule:nonzero;stroke:none"/>
    <path d="m 125.85156,111.6875 4.21485,-18.480469 6.8164,7.062499 z m 0,0" inkscape:connector-curvature="0" id="path153" style="fill:#ffffff;fill-opacity:1;fill-rule:nonzero;stroke:none"/>
    <path d="m 121.14063,91.023438 13.63671,0 -2.60547,11.429692 z m 0,0" inkscape:connector-curvature="0" id="path155" style="fill:#ffffff;fill-opacity:1;fill-rule:nonzero;stroke:none"/>
    <path d="m 133.47266,78.257812 4.21484,18.480469 -8.42578,0 z m 0,0" inkscape:connector-curvature="0" id="path157" style="fill:#ffffff;fill-opacity:1;fill-rule:nonzero;stroke:none"/>
    <path d="m 145.80859,91.023438 -11.03125,11.429692 -2.60547,-11.429692 z m 0,0" inkscape:connector-curvature="0" id="path159" style="fill:#ffffff;fill-opacity:1;fill-rule:nonzero;stroke:none"/>
    <path d="m 141.09766,111.6875 -11.03125,-11.41797 6.8164,-7.062499 z m 0,0" inkscape:connector-curvature="0" id="path161" style="fill:#ffffff;fill-opacity:1;fill-rule:nonzero;stroke:none"/>
    <path d="m 178.90234,111.6875 4.21485,-18.480469 6.8164,7.062499 z m 0,0" inkscape:connector-curvature="0" id="path163" style="fill:#ffffff;fill-opacity:1;fill-rule:nonzero;stroke:none"/>
    <path d="m 174.19141,91.023438 13.63671,0 -2.60546,11.429692 z m 0,0" inkscape:connector-curvature="0" id="path165" style="fill:#ffffff;fill-opacity:1;fill-rule:nonzero;stroke:none"/>
    <path d="m 186.52734,78.257812 4.21094,18.480469 -8.42578,0 z m 0,0" inkscape:connector-curvature="0" id="path167" style="fill:#ffffff;fill-opacity:1;fill-rule:nonzero;stroke:none"/>
    <path d="m 198.85937,91.023438 -11.03125,11.429692 -2.60546,-11.429692 z m 0,0" inkscape:connector-curvature="0" id="path169" style="fill:#ffffff;fill-opacity:1;fill-rule:nonzero;stroke:none"/>
    <path d="m 194.14844,111.6875 -11.03125,-11.41797 6.8164,-7.062499 z m 0,0" inkscape:connector-curvature="0" id="path171" style="fill:#ffffff;fill-opacity:1;fill-rule:nonzero;stroke:none"/>
    <path d="m 231.95703,111.6875 4.21484,-18.480469 6.81641,7.062499 z m 0,0" inkscape:connector-curvature="0" id="path173" style="fill:#ffffff;fill-opacity:1;fill-rule:nonzero;stroke:none"/>
    <path d="m 227.24609,91.023438 13.63672,0 -2.60547,11.429692 z m 0,0" inkscape:connector-curvature="0" id="path175" style="fill:#ffffff;fill-opacity:1;fill-rule:nonzero;stroke:none"/>
    <path d="m 239.57812,78.257812 4.21485,18.480469 -8.42578,0 z m 0,0" inkscape:connector-curvature="0" id="path177" style="fill:#ffffff;fill-opacity:1;fill-rule:nonzero;stroke:none"/>
    <path d="m 251.91406,91.023438 -11.03125,11.429692 -2.60547,-11.429692 z m 0,0" inkscape:connector-curvature="0" id="path179" style="fill:#ffffff;fill-opacity:1;fill-rule:nonzero;stroke:none"/>
    <path d="m 247.20312,111.6875 -11.03125,-11.41797 6.81641,-7.062499 z m 0,0" inkscape:connector-curvature="0" id="path181" style="fill:#ffffff;fill-opacity:1;fill-rule:nonzero;stroke:none"/>
    <path d="m 285.00781,111.6875 4.21485,-18.480469 6.8164,7.062499 z m 0,0" inkscape:connector-curvature="0" id="path183" style="fill:#ffffff;fill-opacity:1;fill-rule:nonzero;stroke:none"/>
    <path d="m 280.29687,91.023438 13.63672,0 -2.60547,11.429692 z m 0,0" inkscape:connector-curvature="0" id="path185" style="fill:#ffffff;fill-opacity:1;fill-rule:nonzero;stroke:none"/>
    <path d="m 292.63281,78.257812 4.21094,18.480469 -8.42578,0 z m 0,0" inkscape:connector-curvature="0" id="path187" style="fill:#ffffff;fill-opacity:1;fill-rule:nonzero;stroke:none"/>
    <path d="m 304.96484,91.023438 -11.03125,11.429692 -2.60547,-11.429692 z m 0,0" inkscape:connector-curvature="0" id="path189" style="fill:#ffffff;fill-opacity:1;fill-rule:nonzero;stroke:none"/>
    <path d="m 300.25391,111.6875 -11.03125,-11.41797 6.8164,-7.062499 z m 0,0" inkscape:connector-curvature="0" id="path191" style="fill:#ffffff;fill-opacity:1;fill-rule:nonzero;stroke:none"/>
    <path d="m 46.273438,144.08594 4.210937,-18.47656 6.820313,7.05468 z m 0,0" inkscape:connector-curvature="0" id="path193" style="fill:#ffffff;fill-opacity:1;fill-rule:nonzero;stroke:none"/>
    <path d="m 41.5625,123.42969 13.632812,0 -2.601562,11.41797 z m 0,0" inkscape:connector-curvature="0" id="path195" style="fill:#ffffff;fill-opacity:1;fill-rule:nonzero;stroke:none"/>
    <path d="m 53.894531,110.66016 4.214844,18.48046 -8.429687,0 z m 0,0" inkscape:connector-curvature="0" id="path197" style="fill:#ffffff;fill-opacity:1;fill-rule:nonzero;stroke:none"/>
    <path d="m 66.226562,123.42969 -11.03125,11.41797 -2.601562,-11.41797 z m 0,0" inkscape:connector-curvature="0" id="path199" style="fill:#ffffff;fill-opacity:1;fill-rule:nonzero;stroke:none"/>
    <path d="m 61.515625,144.08594 -11.03125,-11.42188 6.820313,-7.05468 z m 0,0" inkscape:connector-curvature="0" id="path201" style="fill:#ffffff;fill-opacity:1;fill-rule:nonzero;stroke:none"/>
    <path d="m 99.324219,144.08594 4.214841,-18.47656 6.81641,7.05468 z m 0,0" inkscape:connector-curvature="0" id="path203" style="fill:#ffffff;fill-opacity:1;fill-rule:nonzero;stroke:none"/>
    <path d="m 94.613281,123.42969 13.636719,0 -2.60547,11.41797 z m 0,0" inkscape:connector-curvature="0" id="path205" style="fill:#ffffff;fill-opacity:1;fill-rule:nonzero;stroke:none"/>
    <path d="m 106.94922,110.66016 4.21094,18.48046 -8.42578,0 z m 0,0" inkscape:connector-curvature="0" id="path207" style="fill:#ffffff;fill-opacity:1;fill-rule:nonzero;stroke:none"/>
    <path d="M 119.28125,123.42969 108.25,134.84766 105.64453,123.42969 z m 0,0" inkscape:connector-curvature="0" id="path209" style="fill:#ffffff;fill-opacity:1;fill-rule:nonzero;stroke:none"/>
    <path d="m 114.57031,144.08594 -11.03125,-11.42188 6.81641,-7.05468 z m 0,0" inkscape:connector-curvature="0" id="path211" style="fill:#ffffff;fill-opacity:1;fill-rule:nonzero;stroke:none"/>
    <path d="m 152.37891,144.08594 4.21093,-18.47656 6.82032,7.05468 z m 0,0" inkscape:connector-curvature="0" id="path213" style="fill:#ffffff;fill-opacity:1;fill-rule:nonzero;stroke:none"/>
    <path d="m 147.66797,123.42969 13.63281,0 -2.60156,11.41797 z m 0,0" inkscape:connector-curvature="0" id="path215" style="fill:#ffffff;fill-opacity:1;fill-rule:nonzero;stroke:none"/>
    <path d="m 160,110.66016 4.21484,18.48046 -8.42968,0 z m 0,0" inkscape:connector-curvature="0" id="path217" style="fill:#ffffff;fill-opacity:1;fill-rule:nonzero;stroke:none"/>
    <path d="m 172.33203,123.42969 -11.03125,11.41797 -2.60156,-11.41797 z m 0,0" inkscape:connector-curvature="0" id="path219" style="fill:#ffffff;fill-opacity:1;fill-rule:nonzero;stroke:none"/>
    <path d="m 167.62109,144.08594 -11.03125,-11.42188 6.82032,-7.05468 z m 0,0" inkscape:connector-curvature="0" id="path221" style="fill:#ffffff;fill-opacity:1;fill-rule:nonzero;stroke:none"/>
    <path d="m 205.42969,144.08594 4.21484,-18.47656 6.81641,7.05468 z m 0,0" inkscape:connector-curvature="0" id="path223" style="fill:#ffffff;fill-opacity:1;fill-rule:nonzero;stroke:none"/>
    <path d="m 200.71875,123.42969 13.63672,0 -2.60547,11.41797 z m 0,0" inkscape:connector-curvature="0" id="path225" style="fill:#ffffff;fill-opacity:1;fill-rule:nonzero;stroke:none"/>
    <path d="m 213.05078,110.66016 4.21484,18.48046 -8.42578,0 z m 0,0" inkscape:connector-curvature="0" id="path227" style="fill:#ffffff;fill-opacity:1;fill-rule:nonzero;stroke:none"/>
    <path d="M 225.38672,123.42969 214.35547,134.84766 211.75,123.42969 z m 0,0" inkscape:connector-curvature="0" id="path229" style="fill:#ffffff;fill-opacity:1;fill-rule:nonzero;stroke:none"/>
    <path d="m 220.67578,144.08594 -11.03125,-11.42188 6.81641,-7.05468 z m 0,0" inkscape:connector-curvature="0" id="path231" style="fill:#ffffff;fill-opacity:1;fill-rule:nonzero;stroke:none"/>
    <path d="m 258.48437,144.08594 4.21094,-18.47656 6.82031,7.05468 z m 0,0" inkscape:connector-curvature="0" id="path233" style="fill:#ffffff;fill-opacity:1;fill-rule:nonzero;stroke:none"/>
    <path d="m 253.77344,123.42969 13.63281,0 -2.60156,11.41797 z m 0,0" inkscape:connector-curvature="0" id="path235" style="fill:#ffffff;fill-opacity:1;fill-rule:nonzero;stroke:none"/>
    <path d="m 266.10547,110.66016 4.21484,18.48046 -8.42969,0 z m 0,0" inkscape:connector-curvature="0" id="path237" style="fill:#ffffff;fill-opacity:1;fill-rule:nonzero;stroke:none"/>
    <path d="m 278.4375,123.42969 -11.03125,11.41797 -2.60156,-11.41797 z m 0,0" inkscape:connector-curvature="0" id="path239" style="fill:#ffffff;fill-opacity:1;fill-rule:nonzero;stroke:none"/>
    <path d="m 273.72656,144.08594 -11.03125,-11.42188 6.82031,-7.05468 z m 0,0" inkscape:connector-curvature="0" id="path241" style="fill:#ffffff;fill-opacity:1;fill-rule:nonzero;stroke:none"/>
    <path d="m 19.746094,176.48828 4.214844,-18.48047 6.816406,7.0625 z m 0,0" inkscape:connector-curvature="0" id="path243" style="fill:#ffffff;fill-opacity:1;fill-rule:nonzero;stroke:none"/>
    <path d="m 15.035156,155.82812 13.636719,0 -2.605469,11.42188 z m 0,0" inkscape:connector-curvature="0" id="path245" style="fill:#ffffff;fill-opacity:1;fill-rule:nonzero;stroke:none"/>
    <path d="m 27.367188,143.05469 4.214843,18.48437 -8.425781,0 z m 0,0" inkscape:connector-curvature="0" id="path247" style="fill:#ffffff;fill-opacity:1;fill-rule:nonzero;stroke:none"/>
    <path d="M 39.703125,155.82812 28.671875,167.25 26.066406,155.82812 z m 0,0" inkscape:connector-curvature="0" id="path249" style="fill:#ffffff;fill-opacity:1;fill-rule:nonzero;stroke:none"/>
    <path d="m 34.992188,176.48828 -11.03125,-11.41797 6.816406,-7.0625 z m 0,0" inkscape:connector-curvature="0" id="path251" style="fill:#ffffff;fill-opacity:1;fill-rule:nonzero;stroke:none"/>
    <path d="m 72.796875,176.48828 4.214844,-18.48047 6.816406,7.0625 z m 0,0" inkscape:connector-curvature="0" id="path253" style="fill:#ffffff;fill-opacity:1;fill-rule:nonzero;stroke:none"/>
    <path d="m 68.085938,155.82812 13.636718,0 -2.605468,11.42188 z m 0,0" inkscape:connector-curvature="0" id="path255" style="fill:#ffffff;fill-opacity:1;fill-rule:nonzero;stroke:none"/>
    <path d="m 80.421875,143.05469 4.210937,18.48437 -8.425781,0 z m 0,0" inkscape:connector-curvature="0" id="path257" style="fill:#ffffff;fill-opacity:1;fill-rule:nonzero;stroke:none"/>
    <path d="M 92.753906,155.82812 81.722656,167.25 79.117188,155.82812 z m 0,0" inkscape:connector-curvature="0" id="path259" style="fill:#ffffff;fill-opacity:1;fill-rule:nonzero;stroke:none"/>
    <path d="m 88.042969,176.48828 -11.03125,-11.41797 6.816406,-7.0625 z m 0,0" inkscape:connector-curvature="0" id="path261" style="fill:#ffffff;fill-opacity:1;fill-rule:nonzero;stroke:none"/>
    <path d="m 125.85156,176.48828 4.21485,-18.48047 6.8164,7.0625 z m 0,0" inkscape:connector-curvature="0" id="path263" style="fill:#ffffff;fill-opacity:1;fill-rule:nonzero;stroke:none"/>
    <path d="m 121.14063,155.82812 13.63671,0 -2.60547,11.42188 z m 0,0" inkscape:connector-curvature="0" id="path265" style="fill:#ffffff;fill-opacity:1;fill-rule:nonzero;stroke:none"/>
    <path d="m 133.47266,143.05469 4.21484,18.48437 -8.42578,0 z m 0,0" inkscape:connector-curvature="0" id="path267" style="fill:#ffffff;fill-opacity:1;fill-rule:nonzero;stroke:none"/>
    <path d="M 145.80859,155.82812 134.77734,167.25 132.17187,155.82812 z m 0,0" inkscape:connector-curvature="0" id="path269" style="fill:#ffffff;fill-opacity:1;fill-rule:nonzero;stroke:none"/>
    <path d="m 141.09766,176.48828 -11.03125,-11.41797 6.8164,-7.0625 z m 0,0" inkscape:connector-curvature="0" id="path271" style="fill:#ffffff;fill-opacity:1;fill-rule:nonzero;stroke:none"/>
    <path d="m 178.90234,176.48828 4.21485,-18.48047 6.8164,7.0625 z m 0,0" inkscape:connector-curvature="0" id="path273" style="fill:#ffffff;fill-opacity:1;fill-rule:nonzero;stroke:none"/>
    <path d="m 174.19141,155.82812 13.63671,0 -2.60546,11.42188 z m 0,0" inkscape:connector-curvature="0" id="path275" style="fill:#ffffff;fill-opacity:1;fill-rule:nonzero;stroke:none"/>
    <path d="m 186.52734,143.05469 4.21094,18.48437 -8.42578,0 z m 0,0" inkscape:connector-curvature="0" id="path277" style="fill:#ffffff;fill-opacity:1;fill-rule:nonzero;stroke:none"/>
    <path d="M 198.85937,155.82812 187.82812,167.25 185.22266,155.82812 z m 0,0" inkscape:connector-curvature="0" id="path279" style="fill:#ffffff;fill-opacity:1;fill-rule:nonzero;stroke:none"/>
    <path d="m 194.14844,176.48828 -11.03125,-11.41797 6.8164,-7.0625 z m 0,0" inkscape:connector-curvature="0" id="path281" style="fill:#ffffff;fill-opacity:1;fill-rule:nonzero;stroke:none"/>
    <path d="m 231.95703,176.48828 4.21484,-18.48047 6.81641,7.0625 z m 0,0" inkscape:connector-curvature="0" id="path283" style="fill:#ffffff;fill-opacity:1;fill-rule:nonzero;stroke:none"/>
    <path d="m 227.24609,155.82812 13.63672,0 -2.60547,11.42188 z m 0,0" inkscape:connector-curvature="0" id="path285" style="fill:#ffffff;fill-opacity:1;fill-rule:nonzero;stroke:none"/>
    <path d="m 239.57812,143.05469 4.21485,18.48437 -8.42578,0 z m 0,0" inkscape:connector-curvature="0" id="path287" style="fill:#ffffff;fill-opacity:1;fill-rule:nonzero;stroke:none"/>
    <path d="M 251.91406,155.82812 240.88281,167.25 238.27734,155.82812 z m 0,0" inkscape:connector-curvature="0" id="path289" style="fill:#ffffff;fill-opacity:1;fill-rule:nonzero;stroke:none"/>
    <path d="m 247.20312,176.48828 -11.03125,-11.41797 6.81641,-7.0625 z m 0,0" inkscape:connector-curvature="0" id="path291" style="fill:#ffffff;fill-opacity:1;fill-rule:nonzero;stroke:none"/>
    <path d="m 285.00781,176.48828 4.21485,-18.48047 6.8164,7.0625 z m 0,0" inkscape:connector-curvature="0" id="path293" style="fill:#ffffff;fill-opacity:1;fill-rule:nonzero;stroke:none"/>
    <path d="m 280.29687,155.82812 13.63672,0 -2.60547,11.42188 z m 0,0" inkscape:connector-curvature="0" id="path295" style="fill:#ffffff;fill-opacity:1;fill-rule:nonzero;stroke:none"/>
    <path d="m 292.63281,143.05469 4.21094,18.48437 -8.42578,0 z m 0,0" inkscape:connector-curvature="0" id="path297" style="fill:#ffffff;fill-opacity:1;fill-rule:nonzero;stroke:none"/>
    <path d="M 304.96484,155.82812 293.93359,167.25 291.32812,155.82812 z m 0,0" inkscape:connector-curvature="0" id="path299" style="fill:#ffffff;fill-opacity:1;fill-rule:nonzero;stroke:none"/>
    <path d="m 300.25391,176.48828 -11.03125,-11.41797 6.8164,-7.0625 z m 0,0" inkscape:connector-curvature="0" id="path301" style="fill:#ffffff;fill-opacity:1;fill-rule:nonzero;stroke:none"/>
    <path d="m 46.273438,208.88672 4.210937,-18.47656 6.820313,7.05468 z m 0,0" inkscape:connector-curvature="0" id="path303" style="fill:#ffffff;fill-opacity:1;fill-rule:nonzero;stroke:none"/>
    <path d="m 41.5625,188.22656 13.632812,0 -2.601562,11.42188 z m 0,0" inkscape:connector-curvature="0" id="path305" style="fill:#ffffff;fill-opacity:1;fill-rule:nonzero;stroke:none"/>
    <path d="m 53.894531,175.46094 4.214844,18.48047 -8.429687,0 z m 0,0" inkscape:connector-curvature="0" id="path307" style="fill:#ffffff;fill-opacity:1;fill-rule:nonzero;stroke:none"/>
    <path d="m 66.226562,188.22656 -11.03125,11.42188 -2.601562,-11.42188 z m 0,0" inkscape:connector-curvature="0" id="path309" style="fill:#ffffff;fill-opacity:1;fill-rule:nonzero;stroke:none"/>
    <path d="m 61.515625,208.88672 -11.03125,-11.42188 6.820313,-7.05468 z m 0,0" inkscape:connector-curvature="0" id="path311" style="fill:#ffffff;fill-opacity:1;fill-rule:nonzero;stroke:none"/>
    <path d="m 99.324219,208.88672 4.214841,-18.47656 6.81641,7.05468 z m 0,0" inkscape:connector-curvature="0" id="path313" style="fill:#ffffff;fill-opacity:1;fill-rule:nonzero;stroke:none"/>
    <path d="m 94.613281,188.22656 13.636719,0 -2.60547,11.42188 z m 0,0" inkscape:connector-curvature="0" id="path315" style="fill:#ffffff;fill-opacity:1;fill-rule:nonzero;stroke:none"/>
    <path d="m 106.94922,175.46094 4.21094,18.48047 -8.42578,0 z m 0,0" inkscape:connector-curvature="0" id="path317" style="fill:#ffffff;fill-opacity:1;fill-rule:nonzero;stroke:none"/>
    <path d="M 119.28125,188.22656 108.25,199.64844 105.64453,188.22656 z m 0,0" inkscape:connector-curvature="0" id="path319" style="fill:#ffffff;fill-opacity:1;fill-rule:nonzero;stroke:none"/>
    <path d="m 114.57031,208.88672 -11.03125,-11.42188 6.81641,-7.05468 z m 0,0" inkscape:connector-curvature="0" id="path321" style="fill:#ffffff;fill-opacity:1;fill-rule:nonzero;stroke:none"/>
    <path d="m 152.37891,208.88672 4.21093,-18.47656 6.82032,7.05468 z m 0,0" inkscape:connector-curvature="0" id="path323" style="fill:#ffffff;fill-opacity:1;fill-rule:nonzero;stroke:none"/>
    <path d="m 147.66797,188.22656 13.63281,0 -2.60156,11.42188 z m 0,0" inkscape:connector-curvature="0" id="path325" style="fill:#ffffff;fill-opacity:1;fill-rule:nonzero;stroke:none"/>
    <path d="m 160,175.46094 4.21484,18.48047 -8.42968,0 z m 0,0" inkscape:connector-curvature="0" id="path327" style="fill:#ffffff;fill-opacity:1;fill-rule:nonzero;stroke:none"/>
    <path d="m 172.33203,188.22656 -11.03125,11.42188 -2.60156,-11.42188 z m 0,0" inkscape:connector-curvature="0" id="path329" style="fill:#ffffff;fill-opacity:1;fill-rule:nonzero;stroke:none"/>
    <path d="m 167.62109,208.88672 -11.03125,-11.42188 6.82032,-7.05468 z m 0,0" inkscape:connector-curvature="0" id="path331" style="fill:#ffffff;fill-opacity:1;fill-rule:nonzero;stroke:none"/>
    <path d="m 205.42969,208.88672 4.21484,-18.47656 6.81641,7.05468 z m 0,0" inkscape:connector-curvature="0" id="path333" style="fill:#ffffff;fill-opacity:1;fill-rule:nonzero;stroke:none"/>
    <path d="m 200.71875,188.22656 13.63672,0 -2.60547,11.42188 z m 0,0" inkscape:connector-curvature="0" id="path335" style="fill:#ffffff;fill-opacity:1;fill-rule:nonzero;stroke:none"/>
    <path d="m 213.05078,175.46094 4.21484,18.48047 -8.42578,0 z m 0,0" inkscape:connector-curvature="0" id="path337" style="fill:#ffffff;fill-opacity:1;fill-rule:nonzero;stroke:none"/>
    <path d="M 225.38672,188.22656 214.35547,199.64844 211.75,188.22656 z m 0,0" inkscape:connector-curvature="0" id="path339" style="fill:#ffffff;fill-opacity:1;fill-rule:nonzero;stroke:none"/>
    <path d="m 220.67578,208.88672 -11.03125,-11.42188 6.81641,-7.05468 z m 0,0" inkscape:connector-curvature="0" id="path341" style="fill:#ffffff;fill-opacity:1;fill-rule:nonzero;stroke:none"/>
    <path d="m 258.48437,208.88672 4.21094,-18.47656 6.82031,7.05468 z m 0,0" inkscape:connector-curvature="0" id="path343" style="fill:#ffffff;fill-opacity:1;fill-rule:nonzero;stroke:none"/>
    <path d="m 253.77344,188.22656 13.63281,0 -2.60156,11.42188 z m 0,0" inkscape:connector-curvature="0" id="path345" style="fill:#ffffff;fill-opacity:1;fill-rule:nonzero;stroke:none"/>
    <path d="m 266.10547,175.46094 4.21484,18.48047 -8.42969,0 z m 0,0" inkscape:connector-curvature="0" id="path347" style="fill:#ffffff;fill-opacity:1;fill-rule:nonzero;stroke:none"/>
    <path d="m 278.4375,188.22656 -11.03125,11.42188 -2.60156,-11.42188 z m 0,0" inkscape:connector-curvature="0" id="path349" style="fill:#ffffff;fill-opacity:1;fill-rule:nonzero;stroke:none"/>
    <path d="m 273.72656,208.88672 -11.03125,-11.42188 6.82031,-7.05468 z m 0,0" inkscape:connector-curvature="0" id="path351" style="fill:#ffffff;fill-opacity:1;fill-rule:nonzero;stroke:none"/>
    <path d="m 19.746094,241.28906 4.214844,-18.48047 6.816406,7.0586 z m 0,0" inkscape:connector-curvature="0" id="path353" style="fill:#ffffff;fill-opacity:1;fill-rule:nonzero;stroke:none"/>
    <path d="m 15.035156,220.62891 13.636719,0 -2.605469,11.42187 z m 0,0" inkscape:connector-curvature="0" id="path355" style="fill:#ffffff;fill-opacity:1;fill-rule:nonzero;stroke:none"/>
    <path d="m 27.367188,207.85547 4.214843,18.48047 -8.425781,0 z m 0,0" inkscape:connector-curvature="0" id="path357" style="fill:#ffffff;fill-opacity:1;fill-rule:nonzero;stroke:none"/>
    <path d="m 39.703125,220.62891 -11.03125,11.42187 -2.605469,-11.42187 z m 0,0" inkscape:connector-curvature="0" id="path359" style="fill:#ffffff;fill-opacity:1;fill-rule:nonzero;stroke:none"/>
    <path d="m 34.992188,241.28906 -11.03125,-11.42187 6.816406,-7.0586 z m 0,0" inkscape:connector-curvature="0" id="path361" style="fill:#ffffff;fill-opacity:1;fill-rule:nonzero;stroke:none"/>
    <path d="m 72.796875,241.28906 4.214844,-18.48047 6.816406,7.0586 z m 0,0" inkscape:connector-curvature="0" id="path363" style="fill:#ffffff;fill-opacity:1;fill-rule:nonzero;stroke:none"/>
    <path d="m 68.085938,220.62891 13.636718,0 -2.605468,11.42187 z m 0,0" inkscape:connector-curvature="0" id="path365" style="fill:#ffffff;fill-opacity:1;fill-rule:nonzero;stroke:none"/>
    <path d="m 80.421875,207.85547 4.210937,18.48047 -8.425781,0 z m 0,0" inkscape:connector-curvature="0" id="path367" style="fill:#ffffff;fill-opacity:1;fill-rule:nonzero;stroke:none"/>
    <path d="m 92.753906,220.62891 -11.03125,11.42187 -2.605468,-11.42187 z m 0,0" inkscape:connector-curvature="0" id="path369" style="fill:#ffffff;fill-opacity:1;fill-rule:nonzero;stroke:none"/>
    <path d="m 88.042969,241.28906 -11.03125,-11.42187 6.816406,-7.0586 z m 0,0" inkscape:connector-curvature="0" id="path371" style="fill:#ffffff;fill-opacity:1;fill-rule:nonzero;stroke:none"/>
    <path d="m 125.85156,241.28906 4.21485,-18.48047 6.8164,7.0586 z m 0,0" inkscape:connector-curvature="0" id="path373" style="fill:#ffffff;fill-opacity:1;fill-rule:nonzero;stroke:none"/>
    <path d="m 121.14063,220.62891 13.63671,0 -2.60547,11.42187 z m 0,0" inkscape:connector-curvature="0" id="path375" style="fill:#ffffff;fill-opacity:1;fill-rule:nonzero;stroke:none"/>
    <path d="m 133.47266,207.85547 4.21484,18.48047 -8.42578,0 z m 0,0" inkscape:connector-curvature="0" id="path377" style="fill:#ffffff;fill-opacity:1;fill-rule:nonzero;stroke:none"/>
    <path d="m 145.80859,220.62891 -11.03125,11.42187 -2.60547,-11.42187 z m 0,0" inkscape:connector-curvature="0" id="path379" style="fill:#ffffff;fill-opacity:1;fill-rule:nonzero;stroke:none"/>
    <path d="m 141.09766,241.28906 -11.03125,-11.42187 6.8164,-7.0586 z m 0,0" inkscape:connector-curvature="0" id="path381" style="fill:#ffffff;fill-opacity:1;fill-rule:nonzero;stroke:none"/>
    <path d="m 178.90234,241.28906 4.21485,-18.48047 6.8164,7.0586 z m 0,0" inkscape:connector-curvature="0" id="path383" style="fill:#ffffff;fill-opacity:1;fill-rule:nonzero;stroke:none"/>
    <path d="m 174.19141,220.62891 13.63671,0 -2.60546,11.42187 z m 0,0" inkscape:connector-curvature="0" id="path385" style="fill:#ffffff;fill-opacity:1;fill-rule:nonzero;stroke:none"/>
    <path d="m 186.52734,207.85547 4.21094,18.48047 -8.42578,0 z m 0,0" inkscape:connector-curvature="0" id="path387" style="fill:#ffffff;fill-opacity:1;fill-rule:nonzero;stroke:none"/>
    <path d="m 198.85937,220.62891 -11.03125,11.42187 -2.60546,-11.42187 z m 0,0" inkscape:connector-curvature="0" id="path389" style="fill:#ffffff;fill-opacity:1;fill-rule:nonzero;stroke:none"/>
    <path d="m 194.14844,241.28906 -11.03125,-11.42187 6.8164,-7.0586 z m 0,0" inkscape:connector-curvature="0" id="path391" style="fill:#ffffff;fill-opacity:1;fill-rule:nonzero;stroke:none"/>
    <path d="m 231.95703,241.28906 4.21484,-18.48047 6.81641,7.0586 z m 0,0" inkscape:connector-curvature="0" id="path393" style="fill:#ffffff;fill-opacity:1;fill-rule:nonzero;stroke:none"/>
    <path d="m 227.24609,220.62891 13.63672,0 -2.60547,11.42187 z m 0,0" inkscape:connector-curvature="0" id="path395" style="fill:#ffffff;fill-opacity:1;fill-rule:nonzero;stroke:none"/>
    <path d="m 239.57812,207.85547 4.21485,18.48047 -8.42578,0 z m 0,0" inkscape:connector-curvature="0" id="path397" style="fill:#ffffff;fill-opacity:1;fill-rule:nonzero;stroke:none"/>
    <path d="m 251.91406,220.62891 -11.03125,11.42187 -2.60547,-11.42187 z m 0,0" inkscape:connector-curvature="0" id="path399" style="fill:#ffffff;fill-opacity:1;fill-rule:nonzero;stroke:none"/>
    <path d="m 247.20312,241.28906 -11.03125,-11.42187 6.81641,-7.0586 z m 0,0" inkscape:connector-curvature="0" id="path401" style="fill:#ffffff;fill-opacity:1;fill-rule:nonzero;stroke:none"/>
    <path d="m 285.00781,241.28906 4.21485,-18.48047 6.8164,7.0586 z m 0,0" inkscape:connector-curvature="0" id="path403" style="fill:#ffffff;fill-opacity:1;fill-rule:nonzero;stroke:none"/>
    <path d="m 280.29687,220.62891 13.63672,0 -2.60547,11.42187 z m 0,0" inkscape:connector-curvature="0" id="path405" style="fill:#ffffff;fill-opacity:1;fill-rule:nonzero;stroke:none"/>
    <path d="m 292.63281,207.85547 4.21094,18.48047 -8.42578,0 z m 0,0" inkscape:connector-curvature="0" id="path407" style="fill:#ffffff;fill-opacity:1;fill-rule:nonzero;stroke:none"/>
    <path d="m 304.96484,220.62891 -11.03125,11.42187 -2.60547,-11.42187 z m 0,0" inkscape:connector-curvature="0" id="path409" style="fill:#ffffff;fill-opacity:1;fill-rule:nonzero;stroke:none"/>
    <path d="m 300.25391,241.28906 -11.03125,-11.42187 6.8164,-7.0586 z m 0,0" inkscape:connector-curvature="0" id="path411" style="fill:#ffffff;fill-opacity:1;fill-rule:nonzero;stroke:none"/>
    <path d="m 46.273438,273.69141 4.210937,-18.48047 6.820313,7.05468 z m 0,0" inkscape:connector-curvature="0" id="path413" style="fill:#ffffff;fill-opacity:1;fill-rule:nonzero;stroke:none"/>
    <path d="m 41.5625,253.02734 13.632812,0 -2.601562,11.42188 z m 0,0" inkscape:connector-curvature="0" id="path415" style="fill:#ffffff;fill-opacity:1;fill-rule:nonzero;stroke:none"/>
    <path d="m 53.894531,240.25781 4.214844,18.48438 -8.429687,0 z m 0,0" inkscape:connector-curvature="0" id="path417" style="fill:#ffffff;fill-opacity:1;fill-rule:nonzero;stroke:none"/>
    <path d="m 66.226562,253.02734 -11.03125,11.42188 -2.601562,-11.42188 z m 0,0" inkscape:connector-curvature="0" id="path419" style="fill:#ffffff;fill-opacity:1;fill-rule:nonzero;stroke:none"/>
    <path d="m 61.515625,273.69141 -11.03125,-11.42579 6.820313,-7.05468 z m 0,0" inkscape:connector-curvature="0" id="path421" style="fill:#ffffff;fill-opacity:1;fill-rule:nonzero;stroke:none"/>
    <path d="m 99.324219,273.69141 4.214841,-18.48047 6.81641,7.05468 z m 0,0" inkscape:connector-curvature="0" id="path423" style="fill:#ffffff;fill-opacity:1;fill-rule:nonzero;stroke:none"/>
    <path d="m 94.613281,253.02734 13.636719,0 -2.60547,11.42188 z m 0,0" inkscape:connector-curvature="0" id="path425" style="fill:#ffffff;fill-opacity:1;fill-rule:nonzero;stroke:none"/>
    <path d="m 106.94922,240.25781 4.21094,18.48438 -8.42578,0 z m 0,0" inkscape:connector-curvature="0" id="path427" style="fill:#ffffff;fill-opacity:1;fill-rule:nonzero;stroke:none"/>
    <path d="M 119.28125,253.02734 108.25,264.44922 105.64453,253.02734 z m 0,0" inkscape:connector-curvature="0" id="path429" style="fill:#ffffff;fill-opacity:1;fill-rule:nonzero;stroke:none"/>
    <path d="m 114.57031,273.69141 -11.03125,-11.42579 6.81641,-7.05468 z m 0,0" inkscape:connector-curvature="0" id="path431" style="fill:#ffffff;fill-opacity:1;fill-rule:nonzero;stroke:none"/>
    <path d="m 152.37891,273.69141 4.21093,-18.48047 6.82032,7.05468 z m 0,0" inkscape:connector-curvature="0" id="path433" style="fill:#ffffff;fill-opacity:1;fill-rule:nonzero;stroke:none"/>
    <path d="m 147.66797,253.02734 13.63281,0 -2.60156,11.42188 z m 0,0" inkscape:connector-curvature="0" id="path435" style="fill:#ffffff;fill-opacity:1;fill-rule:nonzero;stroke:none"/>
    <path d="m 160,240.25781 4.21484,18.48438 -8.42968,0 z m 0,0" inkscape:connector-curvature="0" id="path437" style="fill:#ffffff;fill-opacity:1;fill-rule:nonzero;stroke:none"/>
    <path d="m 172.33203,253.02734 -11.03125,11.42188 -2.60156,-11.42188 z m 0,0" inkscape:connector-curvature="0" id="path439" style="fill:#ffffff;fill-opacity:1;fill-rule:nonzero;stroke:none"/>
    <path d="m 167.62109,273.69141 -11.03125,-11.42579 6.82032,-7.05468 z m 0,0" inkscape:connector-curvature="0" id="path441" style="fill:#ffffff;fill-opacity:1;fill-rule:nonzero;stroke:none"/>
    <path d="m 205.42969,273.69141 4.21484,-18.48047 6.81641,7.05468 z m 0,0" inkscape:connector-curvature="0" id="path443" style="fill:#ffffff;fill-opacity:1;fill-rule:nonzero;stroke:none"/>
    <path d="m 200.71875,253.02734 13.63672,0 -2.60547,11.42188 z m 0,0" inkscape:connector-curvature="0" id="path445" style="fill:#ffffff;fill-opacity:1;fill-rule:nonzero;stroke:none"/>
    <path d="m 213.05078,240.25781 4.21484,18.48438 -8.42578,0 z m 0,0" inkscape:connector-curvature="0" id="path447" style="fill:#ffffff;fill-opacity:1;fill-rule:nonzero;stroke:none"/>
    <path d="M 225.38672,253.02734 214.35547,264.44922 211.75,253.02734 z m 0,0" inkscape:connector-curvature="0" id="path449" style="fill:#ffffff;fill-opacity:1;fill-rule:nonzero;stroke:none"/>
    <path d="m 220.67578,273.69141 -11.03125,-11.42579 6.81641,-7.05468 z m 0,0" inkscape:connector-curvature="0" id="path451" style="fill:#ffffff;fill-opacity:1;fill-rule:nonzero;stroke:none"/>
    <path d="m 258.48437,273.69141 4.21094,-18.48047 6.82031,7.05468 z m 0,0" inkscape:connector-curvature="0" id="path453" style="fill:#ffffff;fill-opacity:1;fill-rule:nonzero;stroke:none"/>
    <path d="m 253.77344,253.02734 13.63281,0 -2.60156,11.42188 z m 0,0" inkscape:connector-curvature="0" id="path455" style="fill:#ffffff;fill-opacity:1;fill-rule:nonzero;stroke:none"/>
    <path d="m 266.10547,240.25781 4.21484,18.48438 -8.42969,0 z m 0,0" inkscape:connector-curvature="0" id="path457" style="fill:#ffffff;fill-opacity:1;fill-rule:nonzero;stroke:none"/>
    <path d="m 278.4375,253.02734 -11.03125,11.42188 -2.60156,-11.42188 z m 0,0" inkscape:connector-curvature="0" id="path459" style="fill:#ffffff;fill-opacity:1;fill-rule:nonzero;stroke:none"/>
    <path d="m 273.72656,273.69141 -11.03125,-11.42579 6.82031,-7.05468 z m 0,0" inkscape:connector-curvature="0" id="path461" style="fill:#ffffff;fill-opacity:1;fill-rule:nonzero;stroke:none"/>
    <path d="m 19.746094,306.08984 4.214844,-18.48047 6.816406,7.0586 z m 0,0" inkscape:connector-curvature="0" id="path463" style="fill:#ffffff;fill-opacity:1;fill-rule:nonzero;stroke:none"/>
    <path d="m 15.035156,285.42969 13.636719,0 -2.605469,11.42187 z m 0,0" inkscape:connector-curvature="0" id="path465" style="fill:#ffffff;fill-opacity:1;fill-rule:nonzero;stroke:none"/>
    <path d="m 27.367188,272.65625 4.214843,18.48047 -8.425781,0 z m 0,0" inkscape:connector-curvature="0" id="path467" style="fill:#ffffff;fill-opacity:1;fill-rule:nonzero;stroke:none"/>
    <path d="m 39.703125,285.42969 -11.03125,11.42187 -2.605469,-11.42187 z m 0,0" inkscape:connector-curvature="0" id="path469" style="fill:#ffffff;fill-opacity:1;fill-rule:nonzero;stroke:none"/>
    <path d="m 34.992188,306.08984 -11.03125,-11.42187 6.816406,-7.0586 z m 0,0" inkscape:connector-curvature="0" id="path471" style="fill:#ffffff;fill-opacity:1;fill-rule:nonzero;stroke:none"/>
    <path d="m 72.796875,306.08984 4.214844,-18.48047 6.816406,7.0586 z m 0,0" inkscape:connector-curvature="0" id="path473" style="fill:#ffffff;fill-opacity:1;fill-rule:nonzero;stroke:none"/>
    <path d="m 68.085938,285.42969 13.636718,0 -2.605468,11.42187 z m 0,0" inkscape:connector-curvature="0" id="path475" style="fill:#ffffff;fill-opacity:1;fill-rule:nonzero;stroke:none"/>
    <path d="m 80.421875,272.65625 4.210937,18.48047 -8.425781,0 z m 0,0" inkscape:connector-curvature="0" id="path477" style="fill:#ffffff;fill-opacity:1;fill-rule:nonzero;stroke:none"/>
    <path d="m 92.753906,285.42969 -11.03125,11.42187 -2.605468,-11.42187 z m 0,0" inkscape:connector-curvature="0" id="path479" style="fill:#ffffff;fill-opacity:1;fill-rule:nonzero;stroke:none"/>
    <path d="m 88.042969,306.08984 -11.03125,-11.42187 6.816406,-7.0586 z m 0,0" inkscape:connector-curvature="0" id="path481" style="fill:#ffffff;fill-opacity:1;fill-rule:nonzero;stroke:none"/>
    <path d="m 125.85156,306.08984 4.21485,-18.48047 6.8164,7.0586 z m 0,0" inkscape:connector-curvature="0" id="path483" style="fill:#ffffff;fill-opacity:1;fill-rule:nonzero;stroke:none"/>
    <path d="m 121.14063,285.42969 13.63671,0 -2.60547,11.42187 z m 0,0" inkscape:connector-curvature="0" id="path485" style="fill:#ffffff;fill-opacity:1;fill-rule:nonzero;stroke:none"/>
    <path d="m 133.47266,272.65625 4.21484,18.48047 -8.42578,0 z m 0,0" inkscape:connector-curvature="0" id="path487" style="fill:#ffffff;fill-opacity:1;fill-rule:nonzero;stroke:none"/>
    <path d="m 145.80859,285.42969 -11.03125,11.42187 -2.60547,-11.42187 z m 0,0" inkscape:connector-curvature="0" id="path489" style="fill:#ffffff;fill-opacity:1;fill-rule:nonzero;stroke:none"/>
    <path d="m 141.09766,306.08984 -11.03125,-11.42187 6.8164,-7.0586 z m 0,0" inkscape:connector-curvature="0" id="path491" style="fill:#ffffff;fill-opacity:1;fill-rule:nonzero;stroke:none"/>
    <path d="m 178.90234,306.08984 4.21485,-18.48047 6.8164,7.0586 z m 0,0" inkscape:connector-curvature="0" id="path493" style="fill:#ffffff;fill-opacity:1;fill-rule:nonzero;stroke:none"/>
    <path d="m 174.19141,285.42969 13.63671,0 -2.60546,11.42187 z m 0,0" inkscape:connector-curvature="0" id="path495" style="fill:#ffffff;fill-opacity:1;fill-rule:nonzero;stroke:none"/>
    <path d="m 186.52734,272.65625 4.21094,18.48047 -8.42578,0 z m 0,0" inkscape:connector-curvature="0" id="path497" style="fill:#ffffff;fill-opacity:1;fill-rule:nonzero;stroke:none"/>
    <path d="m 198.85937,285.42969 -11.03125,11.42187 -2.60546,-11.42187 z m 0,0" inkscape:connector-curvature="0" id="path499" style="fill:#ffffff;fill-opacity:1;fill-rule:nonzero;stroke:none"/>
    <path d="m 194.14844,306.08984 -11.03125,-11.42187 6.8164,-7.0586 z m 0,0" inkscape:connector-curvature="0" id="path501" style="fill:#ffffff;fill-opacity:1;fill-rule:nonzero;stroke:none"/>
    <path d="m 231.95703,306.08984 4.21484,-18.48047 6.81641,7.0586 z m 0,0" inkscape:connector-curvature="0" id="path503" style="fill:#ffffff;fill-opacity:1;fill-rule:nonzero;stroke:none"/>
    <path d="m 227.24609,285.42969 13.63672,0 -2.60547,11.42187 z m 0,0" inkscape:connector-curvature="0" id="path505" style="fill:#ffffff;fill-opacity:1;fill-rule:nonzero;stroke:none"/>
    <path d="m 239.57812,272.65625 4.21485,18.48047 -8.42578,0 z m 0,0" inkscape:connector-curvature="0" id="path507" style="fill:#ffffff;fill-opacity:1;fill-rule:nonzero;stroke:none"/>
    <path d="m 251.91406,285.42969 -11.03125,11.42187 -2.60547,-11.42187 z m 0,0" inkscape:connector-curvature="0" id="path509" style="fill:#ffffff;fill-opacity:1;fill-rule:nonzero;stroke:none"/>
    <path d="m 247.20312,306.08984 -11.03125,-11.42187 6.81641,-7.0586 z m 0,0" inkscape:connector-curvature="0" id="path511" style="fill:#ffffff;fill-opacity:1;fill-rule:nonzero;stroke:none"/>
    <path d="m 285.00781,306.08984 4.21485,-18.48047 6.8164,7.0586 z m 0,0" inkscape:connector-curvature="0" id="path513" style="fill:#ffffff;fill-opacity:1;fill-rule:nonzero;stroke:none"/>
    <path d="m 280.29687,285.42969 13.63672,0 -2.60547,11.42187 z m 0,0" inkscape:connector-curvature="0" id="path515" style="fill:#ffffff;fill-opacity:1;fill-rule:nonzero;stroke:none"/>
    <path d="m 292.63281,272.65625 4.21094,18.48047 -8.42578,0 z m 0,0" inkscape:connector-curvature="0" id="path517" style="fill:#ffffff;fill-opacity:1;fill-rule:nonzero;stroke:none"/>
    <path d="m 304.96484,285.42969 -11.03125,11.42187 -2.60547,-11.42187 z m 0,0" inkscape:connector-curvature="0" id="path519" style="fill:#ffffff;fill-opacity:1;fill-rule:nonzero;stroke:none"/>
    <path d="m 300.25391,306.08984 -11.03125,-11.42187 6.8164,-7.0586 z m 0,0" inkscape:connector-curvature="0" id="path521" style="fill:#ffffff;fill-opacity:1;fill-rule:nonzero;stroke:none"/>
  </g>
</svg>