\relax 
\providecommand\hyper@newdestlabel[2]{}
\catcode `"\active 
\catcode `<\active 
\catcode `>\active 
\@nameuse{es@quoting}
\providecommand\HyperFirstAtBeginDocument{\AtBeginDocument}
\HyperFirstAtBeginDocument{\ifx\hyper@anchor\@undefined
\global\let\oldcontentsline\contentsline
\gdef\contentsline#1#2#3#4{\oldcontentsline{#1}{#2}{#3}}
\global\let\oldnewlabel\newlabel
\gdef\newlabel#1#2{\newlabelxx{#1}#2}
\gdef\newlabelxx#1#2#3#4#5#6{\oldnewlabel{#1}{{#2}{#3}}}
\AtEndDocument{\ifx\hyper@anchor\@undefined
\let\contentsline\oldcontentsline
\let\newlabel\oldnewlabel
\fi}
\fi}
\global\let\hyper@last\relax 
\gdef\HyperFirstAtBeginDocument#1{#1}
\providecommand\HyField@AuxAddToFields[1]{}
\providecommand\HyField@AuxAddToCoFields[2]{}
\providecommand \oddpage@label [2]{}
\select@language{spanish}
\@writefile{toc}{\select@language{spanish}}
\@writefile{lof}{\select@language{spanish}}
\@writefile{lot}{\select@language{spanish}}
\@writefile{toc}{\contentsline {part}{I\hspace  {1em}Proleg\IeC {\'o}meno}{13}{part.1}}
\@writefile{toc}{\contentsline {chapter}{\numberline {1}Introducci\IeC {\'o}n}{15}{chapter.1}}
\@writefile{lof}{\addvspace {10\p@ }}
\@writefile{lot}{\addvspace {10\p@ }}
\@writefile{toc}{\contentsline {section}{\numberline {1.1}Objetivo del proyecto}{15}{section.1.1}}
\@writefile{toc}{\contentsline {section}{\numberline {1.2}Glosario de T\IeC {\'e}rminos}{15}{section.1.2}}
\@writefile{toc}{\contentsline {chapter}{\numberline {2}Planificaci\IeC {\'o}n}{17}{chapter.2}}
\@writefile{lof}{\addvspace {10\p@ }}
\@writefile{lot}{\addvspace {10\p@ }}
\@writefile{toc}{\contentsline {section}{\numberline {2.1}Metodolog\IeC {\'\i }a de desarrollo}{17}{section.2.1}}
\@writefile{toc}{\contentsline {section}{\numberline {2.2}Planificaci\IeC {\'o}n del proyecto}{17}{section.2.2}}
\@writefile{toc}{\contentsline {section}{\numberline {2.3}Diagrama de Gantt}{18}{section.2.3}}
\@writefile{lof}{\contentsline {figure}{\numberline {2.1}{\ignorespaces Gantt por meses}}{18}{figure.2.1}}
\@writefile{lof}{\contentsline {figure}{\numberline {2.2}{\ignorespaces Gantt por semanas }}{19}{figure.2.2}}
\@writefile{toc}{\contentsline {part}{II\hspace  {1em}Desarrollo}{21}{part.2}}
\@writefile{toc}{\contentsline {chapter}{\numberline {3}An\IeC {\'a}lisis y dise\IeC {\~n}o del Sistema}{23}{chapter.3}}
\@writefile{lof}{\addvspace {10\p@ }}
\@writefile{lot}{\addvspace {10\p@ }}
\@writefile{toc}{\contentsline {section}{\numberline {3.1}Actores}{23}{section.3.1}}
\@writefile{toc}{\contentsline {section}{\numberline {3.2}Clases abstractas}{23}{section.3.2}}
\@writefile{toc}{\contentsline {subsection}{\numberline {3.2.1}Pantalla}{23}{subsection.3.2.1}}
\@writefile{lof}{\contentsline {figure}{\numberline {3.1}{\ignorespaces Modelo conceptual: Pantalla}}{23}{figure.3.1}}
\@writefile{toc}{\contentsline {subsection}{\numberline {3.2.2}Juego}{23}{subsection.3.2.2}}
\@writefile{toc}{\contentsline {section}{\numberline {3.3}Modelo Conceptual}{24}{section.3.3}}
\@writefile{toc}{\contentsline {subsection}{\numberline {3.3.1}Men\IeC {\'u} idiomas}{24}{subsection.3.3.1}}
\@writefile{lof}{\contentsline {figure}{\numberline {3.2}{\ignorespaces Modelo conceptual: Men\IeC {\'u} idiomas}}{24}{figure.3.2}}
\@writefile{toc}{\contentsline {subsection}{\numberline {3.3.2}Men\IeC {\'u} principal}{25}{subsection.3.3.2}}
\@writefile{lof}{\contentsline {figure}{\numberline {3.3}{\ignorespaces Modelo conceptual: Men\IeC {\'u} principal}}{25}{figure.3.3}}
\@writefile{toc}{\contentsline {subsection}{\numberline {3.3.3}Men\IeC {\'u} opciones}{26}{subsection.3.3.3}}
\@writefile{lof}{\contentsline {figure}{\numberline {3.4}{\ignorespaces Modelo conceptual: Men\IeC {\'u} opciones}}{26}{figure.3.4}}
\@writefile{toc}{\contentsline {subsection}{\numberline {3.3.4}Men\IeC {\'u} elecci\IeC {\'o}n de personajes y escenario}{27}{subsection.3.3.4}}
\@writefile{lof}{\contentsline {figure}{\numberline {3.5}{\ignorespaces Modelo conceptual: Men\IeC {\'u} elecci\IeC {\'o}n}}{27}{figure.3.5}}
\@writefile{toc}{\contentsline {subsection}{\numberline {3.3.5}Lucha}{28}{subsection.3.3.5}}
\@writefile{lof}{\contentsline {figure}{\numberline {3.6}{\ignorespaces Modelo conceptual: Juego Lucha}}{28}{figure.3.6}}
\@writefile{toc}{\contentsline {subsection}{\numberline {3.3.6}Men\IeC {\'u} Pausa}{29}{subsection.3.3.6}}
\@writefile{lof}{\contentsline {figure}{\numberline {3.7}{\ignorespaces Modelo conceptual: Men\IeC {\'u} pausa}}{29}{figure.3.7}}
\@writefile{toc}{\contentsline {subsection}{\numberline {3.3.7}Men\IeC {\'u} KO}{30}{subsection.3.3.7}}
\@writefile{lof}{\contentsline {figure}{\numberline {3.8}{\ignorespaces Modelo conceptual: Men\IeC {\'u} KO}}{30}{figure.3.8}}
\@writefile{toc}{\contentsline {section}{\numberline {3.4}Modelo de Casos de Uso}{31}{section.3.4}}
\@writefile{toc}{\contentsline {subsection}{\numberline {3.4.1}Men\IeC {\'u} idiomas}{31}{subsection.3.4.1}}
\@writefile{lof}{\contentsline {figure}{\numberline {3.9}{\ignorespaces Caso de uso: Men\IeC {\'u} idiomas}}{31}{figure.3.9}}
\@writefile{toc}{\contentsline {subsection}{\numberline {3.4.2}Men\IeC {\'u} principal}{32}{subsection.3.4.2}}
\@writefile{lof}{\contentsline {figure}{\numberline {3.10}{\ignorespaces Caso de uso: Men\IeC {\'u} principal}}{32}{figure.3.10}}
\@writefile{toc}{\contentsline {subsection}{\numberline {3.4.3}Men\IeC {\'u} opciones}{33}{subsection.3.4.3}}
\@writefile{lof}{\contentsline {figure}{\numberline {3.11}{\ignorespaces Caso de uso: Men\IeC {\'u} opciones}}{33}{figure.3.11}}
\@writefile{toc}{\contentsline {subsection}{\numberline {3.4.4}Men\IeC {\'u} elecci\IeC {\'o}n de personajes y escenario}{34}{subsection.3.4.4}}
\@writefile{lof}{\contentsline {figure}{\numberline {3.12}{\ignorespaces Caso de uso: Men\IeC {\'u} elecci\IeC {\'o}n}}{34}{figure.3.12}}
\@writefile{toc}{\contentsline {subsection}{\numberline {3.4.5}Lucha}{36}{subsection.3.4.5}}
\@writefile{lof}{\contentsline {figure}{\numberline {3.13}{\ignorespaces Caso de uso: Un jugador}}{36}{figure.3.13}}
\@writefile{toc}{\contentsline {subsection}{\numberline {3.4.6}Men\IeC {\'u} Pausa}{37}{subsection.3.4.6}}
\@writefile{lof}{\contentsline {figure}{\numberline {3.14}{\ignorespaces Caso de uso: Men\IeC {\'u} pausa}}{37}{figure.3.14}}
\@writefile{toc}{\contentsline {subsection}{\numberline {3.4.7}Men\IeC {\'u} KO}{38}{subsection.3.4.7}}
\@writefile{lof}{\contentsline {figure}{\numberline {3.15}{\ignorespaces Caso de uso: Men\IeC {\'u} KO}}{38}{figure.3.15}}
\@writefile{toc}{\contentsline {section}{\numberline {3.5}Diagrama de secuencia}{39}{section.3.5}}
\@writefile{toc}{\contentsline {subsection}{\numberline {3.5.1}Men\IeC {\'u} idiomas}{39}{subsection.3.5.1}}
\@writefile{lof}{\contentsline {figure}{\numberline {3.16}{\ignorespaces Diagrama de secuencia: Men\IeC {\'u} idiomas}}{39}{figure.3.16}}
\@writefile{toc}{\contentsline {subsection}{\numberline {3.5.2}Men\IeC {\'u} principal}{40}{subsection.3.5.2}}
\@writefile{lof}{\contentsline {figure}{\numberline {3.17}{\ignorespaces Diagrama de secuencia: Men\IeC {\'u} principal}}{40}{figure.3.17}}
\@writefile{toc}{\contentsline {subsection}{\numberline {3.5.3}Men\IeC {\'u} opciones}{41}{subsection.3.5.3}}
\@writefile{lof}{\contentsline {figure}{\numberline {3.18}{\ignorespaces Diagrama de secuencia: Men\IeC {\'u} opciones}}{41}{figure.3.18}}
\@writefile{toc}{\contentsline {subsection}{\numberline {3.5.4}Men\IeC {\'u} elecci\IeC {\'o}n de personajes y escenario}{42}{subsection.3.5.4}}
\@writefile{lof}{\contentsline {figure}{\numberline {3.19}{\ignorespaces Diagrama de secuencia: Men\IeC {\'u} elecci\IeC {\'o}n}}{42}{figure.3.19}}
\@writefile{toc}{\contentsline {subsection}{\numberline {3.5.5}Lucha}{43}{subsection.3.5.5}}
\@writefile{lof}{\contentsline {figure}{\numberline {3.20}{\ignorespaces Diagrama de secuencia: Lucha}}{43}{figure.3.20}}
\@writefile{toc}{\contentsline {subsection}{\numberline {3.5.6}Men\IeC {\'u} Pausa}{44}{subsection.3.5.6}}
\@writefile{lof}{\contentsline {figure}{\numberline {3.21}{\ignorespaces Diagrama de secuencia: Men\IeC {\'u} pausa}}{44}{figure.3.21}}
\@writefile{toc}{\contentsline {subsection}{\numberline {3.5.7}Men\IeC {\'u} KO}{45}{subsection.3.5.7}}
\@writefile{lof}{\contentsline {figure}{\numberline {3.22}{\ignorespaces Diagrama de secuencia: Men\IeC {\'u} ko}}{45}{figure.3.22}}
\@writefile{toc}{\contentsline {section}{\numberline {3.6}Contrato operaciones}{46}{section.3.6}}
\@writefile{toc}{\contentsline {subsection}{\numberline {3.6.1}Men\IeC {\'u} idiomas}{46}{subsection.3.6.1}}
\@writefile{toc}{\contentsline {subsection}{\numberline {3.6.2}Men\IeC {\'u} principal}{46}{subsection.3.6.2}}
\@writefile{toc}{\contentsline {subsection}{\numberline {3.6.3}Men\IeC {\'u} opciones}{46}{subsection.3.6.3}}
\@writefile{toc}{\contentsline {subsection}{\numberline {3.6.4}Men\IeC {\'u} elecci\IeC {\'o}n de personajes y escenario}{46}{subsection.3.6.4}}
\@writefile{toc}{\contentsline {subsection}{\numberline {3.6.5}Lucha}{47}{subsection.3.6.5}}
\@writefile{toc}{\contentsline {subsection}{\numberline {3.6.6}Men\IeC {\'u} Pausa}{47}{subsection.3.6.6}}
\@writefile{toc}{\contentsline {subsection}{\numberline {3.6.7}Men\IeC {\'u} KO}{47}{subsection.3.6.7}}
\@writefile{toc}{\contentsline {section}{\numberline {3.7}Boceto pantalla}{48}{section.3.7}}
\@writefile{toc}{\contentsline {subsection}{\numberline {3.7.1}Men\IeC {\'u} idiomas}{48}{subsection.3.7.1}}
\@writefile{lof}{\contentsline {figure}{\numberline {3.23}{\ignorespaces Boceto del men\IeC {\'u} idioma}}{48}{figure.3.23}}
\@writefile{toc}{\contentsline {subsection}{\numberline {3.7.2}Men\IeC {\'u} principal}{48}{subsection.3.7.2}}
\@writefile{lof}{\contentsline {figure}{\numberline {3.24}{\ignorespaces Boceto del men\IeC {\'u} principal}}{48}{figure.3.24}}
\@writefile{toc}{\contentsline {subsection}{\numberline {3.7.3}Men\IeC {\'u} opciones}{49}{subsection.3.7.3}}
\@writefile{lof}{\contentsline {figure}{\numberline {3.25}{\ignorespaces Boceto del men\IeC {\'u} opciones}}{49}{figure.3.25}}
\@writefile{toc}{\contentsline {subsection}{\numberline {3.7.4}Men\IeC {\'u} elecci\IeC {\'o}n de personajes y escenario}{49}{subsection.3.7.4}}
\@writefile{lof}{\contentsline {figure}{\numberline {3.26}{\ignorespaces Boceto del men\IeC {\'u} elecci\IeC {\'o}n}}{49}{figure.3.26}}
\@writefile{toc}{\contentsline {subsection}{\numberline {3.7.5}Lucha}{50}{subsection.3.7.5}}
\@writefile{lof}{\contentsline {figure}{\numberline {3.27}{\ignorespaces Resultado final de la pantalla principal del juego}}{50}{figure.3.27}}
\@writefile{toc}{\contentsline {subsection}{\numberline {3.7.6}Men\IeC {\'u} Pausa}{50}{subsection.3.7.6}}
\@writefile{lof}{\contentsline {figure}{\numberline {3.28}{\ignorespaces Boceto del men\IeC {\'u} pausa}}{50}{figure.3.28}}
\@writefile{toc}{\contentsline {subsubsection}{Men\IeC {\'u} KO}{51}{section*.8}}
\@writefile{lof}{\contentsline {figure}{\numberline {3.29}{\ignorespaces Boceto del men\IeC {\'u} ko}}{51}{figure.3.29}}
\@writefile{toc}{\contentsline {section}{\numberline {3.8}Resultado final}{52}{section.3.8}}
\@writefile{toc}{\contentsline {subsection}{\numberline {3.8.1}Men\IeC {\'u} idiomas}{52}{subsection.3.8.1}}
\@writefile{lof}{\contentsline {figure}{\numberline {3.30}{\ignorespaces Resultado final de la pantalla men\IeC {\'u} idiomas}}{52}{figure.3.30}}
\@writefile{toc}{\contentsline {subsection}{\numberline {3.8.2}Men\IeC {\'u} principal}{53}{subsection.3.8.2}}
\@writefile{lof}{\contentsline {figure}{\numberline {3.31}{\ignorespaces Resultado final de la pantalla men\IeC {\'u} principal}}{53}{figure.3.31}}
\@writefile{toc}{\contentsline {subsection}{\numberline {3.8.3}Men\IeC {\'u} opciones}{53}{subsection.3.8.3}}
\@writefile{lof}{\contentsline {figure}{\numberline {3.32}{\ignorespaces Resultado final de la pantalla men\IeC {\'u} opciones}}{53}{figure.3.32}}
\@writefile{toc}{\contentsline {subsection}{\numberline {3.8.4}Men\IeC {\'u} elecci\IeC {\'o}n de personajes y escenario}{54}{subsection.3.8.4}}
\@writefile{lof}{\contentsline {figure}{\numberline {3.33}{\ignorespaces Resultado final de la pantalla men\IeC {\'u} elecci\IeC {\'o}n}}{54}{figure.3.33}}
\@writefile{toc}{\contentsline {subsection}{\numberline {3.8.5}Lucha}{54}{subsection.3.8.5}}
\@writefile{lof}{\contentsline {figure}{\numberline {3.34}{\ignorespaces Resultado final de la pantalla principal del juego}}{54}{figure.3.34}}
\@writefile{toc}{\contentsline {subsection}{\numberline {3.8.6}Men\IeC {\'u} Pausa}{55}{subsection.3.8.6}}
\@writefile{lof}{\contentsline {figure}{\numberline {3.35}{\ignorespaces Resultado final de la pantalla men\IeC {\'u} pausa}}{55}{figure.3.35}}
\@writefile{toc}{\contentsline {subsubsection}{Men\IeC {\'u} KO}{55}{section*.9}}
\@writefile{lof}{\contentsline {figure}{\numberline {3.36}{\ignorespaces Resultado final de la pantalla men\IeC {\'u} ko}}{55}{figure.3.36}}
\@writefile{toc}{\contentsline {section}{\numberline {3.9}Navegaci\IeC {\'o}n entre pantallas}{56}{section.3.9}}
\@writefile{lof}{\contentsline {figure}{\numberline {3.37}{\ignorespaces Navegaci\IeC {\'o}n entre pantallas}}{56}{figure.3.37}}
\@writefile{toc}{\contentsline {chapter}{\numberline {4}Construcci\IeC {\'o}n del Sistema}{57}{chapter.4}}
\@writefile{lof}{\addvspace {10\p@ }}
\@writefile{lot}{\addvspace {10\p@ }}
\@writefile{toc}{\contentsline {section}{\numberline {4.1}Organizaci\IeC {\'o}n del repositorio}{57}{section.4.1}}
\@writefile{toc}{\contentsline {section}{\numberline {4.2}Entorno de Construcci\IeC {\'o}n}{58}{section.4.2}}
\@writefile{toc}{\contentsline {subsection}{\numberline {4.2.1}Documentaci\IeC {\'o}n}{58}{subsection.4.2.1}}
\@writefile{toc}{\contentsline {subsubsection}{Texmaker}{58}{section*.10}}
\@writefile{toc}{\contentsline {subsubsection}{Dia}{58}{section*.11}}
\@writefile{toc}{\contentsline {subsubsection}{Pencil evolus}{58}{section*.12}}
\@writefile{toc}{\contentsline {subsubsection}{Gimp}{59}{section*.13}}
\@writefile{toc}{\contentsline {subsubsection}{Slippy - HTML Slides (presentaci\IeC {\'o}n)}{59}{section*.14}}
\@writefile{toc}{\contentsline {subsection}{\numberline {4.2.2}Videojuego}{59}{subsection.4.2.2}}
\@writefile{toc}{\contentsline {subsubsection}{Blender}{59}{section*.15}}
\@writefile{toc}{\contentsline {subsubsection}{Bgui}{59}{section*.16}}
\@writefile{toc}{\contentsline {subsubsection}{Git}{59}{section*.17}}
\@writefile{toc}{\contentsline {subsubsection}{Poedit}{59}{section*.18}}
\@writefile{toc}{\contentsline {subsubsection}{Sublime Text 2}{60}{section*.19}}
\@writefile{toc}{\contentsline {section}{\numberline {4.3}Bucle del juego}{60}{section.4.3}}
\@writefile{toc}{\contentsline {section}{\numberline {4.4}Composici\IeC {\'o}n de los personajes}{60}{section.4.4}}
\@writefile{toc}{\contentsline {subsection}{\numberline {4.4.1}Malla (Mesh)}{60}{subsection.4.4.1}}
\@writefile{lof}{\contentsline {figure}{\numberline {4.1}{\ignorespaces Uno de los personajes del juego}}{61}{figure.4.1}}
\@writefile{lof}{\contentsline {figure}{\numberline {4.2}{\ignorespaces Malla del personaje RockGolem}}{61}{figure.4.2}}
\@writefile{toc}{\contentsline {subsection}{\numberline {4.4.2}Preparaci\IeC {\'o}n de la malla}{62}{subsection.4.4.2}}
\@writefile{lof}{\contentsline {figure}{\numberline {4.3}{\ignorespaces Comparativa de mallas}}{62}{figure.4.3}}
\@writefile{lof}{\contentsline {figure}{\numberline {4.4}{\ignorespaces Comparativa de mallas}}{63}{figure.4.4}}
\@writefile{toc}{\contentsline {subsection}{\numberline {4.4.3}Esqueleto (Armature)}{63}{subsection.4.4.3}}
\@writefile{lof}{\contentsline {figure}{\numberline {4.5}{\ignorespaces Esqueleto del personaje RockGolem}}{64}{figure.4.5}}
\@writefile{lof}{\contentsline {figure}{\numberline {4.6}{\ignorespaces Zona afectado por un hueso del esqueleto}}{64}{figure.4.6}}
\@writefile{lof}{\contentsline {figure}{\numberline {4.7}{\ignorespaces Animaci\IeC {\'o}n avanzar del personaje RockGolem en el fotograma 60}}{65}{figure.4.7}}
\@writefile{toc}{\contentsline {subsection}{\numberline {4.4.4}Fisicas y colisiones}{65}{subsection.4.4.4}}
\@writefile{lof}{\contentsline {figure}{\numberline {4.8}{\ignorespaces Cubo y colisiones}}{66}{figure.4.8}}
\@writefile{lof}{\contentsline {figure}{\numberline {4.9}{\ignorespaces Cubo y colisiones}}{67}{figure.4.9}}
\@writefile{toc}{\contentsline {subsection}{\numberline {4.4.5}Nomenclatura}{67}{subsection.4.4.5}}
\@writefile{toc}{\contentsline {section}{\numberline {4.5}Mec\IeC {\'a}nicas de personajes}{67}{section.4.5}}
\@writefile{toc}{\contentsline {subsection}{\numberline {4.5.1}Movimientos}{67}{subsection.4.5.1}}
\@writefile{toc}{\contentsline {subsection}{\numberline {4.5.2}Acciones}{67}{subsection.4.5.2}}
\@writefile{toc}{\contentsline {subsection}{\numberline {4.5.3}Grafo}{68}{subsection.4.5.3}}
\@writefile{lof}{\contentsline {figure}{\numberline {4.10}{\ignorespaces Grafo AFD de la IA}}{68}{figure.4.10}}
\@writefile{toc}{\contentsline {subsection}{\numberline {4.5.4}IA}{69}{subsection.4.5.4}}
\@writefile{toc}{\contentsline {section}{\numberline {4.6}Ficheros .json}{69}{section.4.6}}
\@writefile{toc}{\contentsline {subsection}{\numberline {4.6.1}Ejemplo json de un personaje}{69}{subsection.4.6.1}}
\@writefile{toc}{\contentsline {section}{\numberline {4.7}Escenarios}{74}{section.4.7}}
\@writefile{lof}{\contentsline {figure}{\numberline {4.11}{\ignorespaces Puntos de spawn y muros que limitan la acci\IeC {\'o}n}}{74}{figure.4.11}}
\@writefile{lof}{\contentsline {figure}{\numberline {4.12}{\ignorespaces Otro ejemplo}}{75}{figure.4.12}}
\@writefile{lof}{\contentsline {figure}{\numberline {4.13}{\ignorespaces Ejemplo de un escenario con todos los elementos}}{75}{figure.4.13}}
\@writefile{lof}{\contentsline {figure}{\numberline {4.14}{\ignorespaces Ejemplo del suelo}}{76}{figure.4.14}}
\@writefile{toc}{\contentsline {section}{\numberline {4.8}Elementos del Juego}{76}{section.4.8}}
\@writefile{toc}{\contentsline {chapter}{\numberline {5}Pruebas del Sistema}{77}{chapter.5}}
\@writefile{lof}{\addvspace {10\p@ }}
\@writefile{lot}{\addvspace {10\p@ }}
\@writefile{toc}{\contentsline {section}{\numberline {5.1}Funciones empleadas para las pruebas}{77}{section.5.1}}
\@writefile{toc}{\contentsline {section}{\numberline {5.2}Ejemplos de uso}{78}{section.5.2}}
\@writefile{toc}{\contentsline {section}{\numberline {5.3}log.txt}{79}{section.5.3}}
\@writefile{toc}{\contentsline {section}{\numberline {5.4}Ejemplo}{79}{section.5.4}}
\@writefile{toc}{\contentsline {part}{III\hspace  {1em}Ep\IeC {\'\i }logo}{83}{part.3}}
\@writefile{toc}{\contentsline {chapter}{\numberline {6}Manual de usuario}{85}{chapter.6}}
\@writefile{lof}{\addvspace {10\p@ }}
\@writefile{lot}{\addvspace {10\p@ }}
\@writefile{toc}{\contentsline {section}{\numberline {6.1}Requisitos}{85}{section.6.1}}
\@writefile{toc}{\contentsline {subsection}{\numberline {6.1.1}Sitemas operativos}{85}{subsection.6.1.1}}
\@writefile{toc}{\contentsline {subsection}{\numberline {6.1.2}Requisitos m\IeC {\'\i }nimos de hardware}{85}{subsection.6.1.2}}
\@writefile{toc}{\contentsline {subsection}{\numberline {6.1.3}Requisitos recomendados de hardware}{85}{subsection.6.1.3}}
\@writefile{toc}{\contentsline {section}{\numberline {6.2}Instalaci\IeC {\'o}n}{85}{section.6.2}}
\@writefile{toc}{\contentsline {subsection}{\numberline {6.2.1}Windows}{85}{subsection.6.2.1}}
\@writefile{toc}{\contentsline {subsection}{\numberline {6.2.2}Linux}{86}{subsection.6.2.2}}
\@writefile{toc}{\contentsline {section}{\numberline {6.3}Controles}{86}{section.6.3}}
\@writefile{toc}{\contentsline {section}{\numberline {6.4}Introducci\IeC {\'o}n}{86}{section.6.4}}
\@writefile{toc}{\contentsline {section}{\numberline {6.5}Caracter\IeC {\'\i }sticas}{86}{section.6.5}}
\@writefile{toc}{\contentsline {section}{\numberline {6.6}Requisitos previos}{87}{section.6.6}}
\@writefile{toc}{\contentsline {section}{\numberline {6.7}Uso del sistema}{87}{section.6.7}}
\@writefile{toc}{\contentsline {chapter}{\numberline {7}Conclusiones}{89}{chapter.7}}
\@writefile{lof}{\addvspace {10\p@ }}
\@writefile{lot}{\addvspace {10\p@ }}
\@writefile{toc}{\contentsline {section}{\numberline {7.1}Objetivos alcanzados y lecciones aprendidas}{89}{section.7.1}}
\@writefile{toc}{\contentsline {section}{\numberline {7.2}Futuras mejoras}{89}{section.7.2}}
\bibcite{Bap}{1}
\bibcite{Baf}{2}
\bibcite{Pad}{3}
\bibcite{Bgui}{4}
\bibcite{Pad}{5}
\bibcite{Fmv}{6}
\bibcite{Udp}{7}
\@writefile{toc}{\contentsline {chapter}{Bibliograf\'{\i }a}{91}{chapter*.20}}
\@writefile{toc}{\contentsline {chapter}{Informaci\IeC {\'o}n sobre Licencia}{93}{section*.21}}
\@writefile{toc}{\contentsline {chapter}{GNU Free Documentation License}{93}{section*.22}}
\@writefile{toc}{\contentsline {section}{1. APPLICABILITY AND DEFINITIONS}{93}{section*.23}}
\@writefile{toc}{\contentsline {section}{2. VERBATIM COPYING}{94}{section*.24}}
\@writefile{toc}{\contentsline {section}{3. COPYING IN QUANTITY}{95}{section*.25}}
\@writefile{toc}{\contentsline {section}{4. MODIFICATIONS}{95}{section*.26}}
\@writefile{toc}{\contentsline {section}{5. COMBINING DOCUMENTS}{97}{section*.27}}
\@writefile{toc}{\contentsline {section}{6. COLLECTIONS OF DOCUMENTS}{97}{section*.28}}
\@writefile{toc}{\contentsline {section}{7. AGGREGATION WITH INDEPENDENT WORKS}{97}{section*.29}}
\@writefile{toc}{\contentsline {section}{8. TRANSLATION}{98}{section*.30}}
\@writefile{toc}{\contentsline {section}{9. TERMINATION}{98}{section*.31}}
\@writefile{toc}{\contentsline {section}{10. FUTURE REVISIONS OF THIS LICENSE}{98}{section*.32}}
\@writefile{toc}{\contentsline {section}{11. RELICENSING}{98}{section*.33}}
\@writefile{toc}{\contentsline {section}{ADDENDUM: How to use this License for your documents}{99}{section*.34}}
\ttl@finishall
