\BOOKMARK [-1][-]{part.1}{I Proleg\363meno}{}% 1
\BOOKMARK [0][-]{chapter.1}{Introducci\363n}{part.1}% 2
\BOOKMARK [1][-]{section.1.1}{Objetivo del proyecto}{chapter.1}% 3
\BOOKMARK [1][-]{section.1.2}{Glosario de T\351rminos}{chapter.1}% 4
\BOOKMARK [0][-]{chapter.2}{Planificaci\363n}{part.1}% 5
\BOOKMARK [1][-]{section.2.1}{Metodolog\355a de desarrollo}{chapter.2}% 6
\BOOKMARK [1][-]{section.2.2}{Planificaci\363n del proyecto}{chapter.2}% 7
\BOOKMARK [1][-]{section.2.3}{Diagrama de Gantt}{chapter.2}% 8
\BOOKMARK [-1][-]{part.2}{II Desarrollo}{}% 9
\BOOKMARK [0][-]{chapter.3}{An\341lisis y dise\361o del Sistema}{part.2}% 10
\BOOKMARK [1][-]{section.3.1}{Actores}{chapter.3}% 11
\BOOKMARK [1][-]{section.3.2}{Clases abstractas}{chapter.3}% 12
\BOOKMARK [2][-]{subsection.3.2.1}{Pantalla}{section.3.2}% 13
\BOOKMARK [2][-]{subsection.3.2.2}{Juego}{section.3.2}% 14
\BOOKMARK [1][-]{section.3.3}{Modelo Conceptual}{chapter.3}% 15
\BOOKMARK [2][-]{subsection.3.3.1}{Men\372 idiomas}{section.3.3}% 16
\BOOKMARK [2][-]{subsection.3.3.2}{Men\372 principal}{section.3.3}% 17
\BOOKMARK [2][-]{subsection.3.3.3}{Men\372 opciones}{section.3.3}% 18
\BOOKMARK [2][-]{subsection.3.3.4}{Men\372 elecci\363n de personajes y escenario}{section.3.3}% 19
\BOOKMARK [2][-]{subsection.3.3.5}{Lucha}{section.3.3}% 20
\BOOKMARK [2][-]{subsection.3.3.6}{Men\372 Pausa}{section.3.3}% 21
\BOOKMARK [2][-]{subsection.3.3.7}{Men\372 KO}{section.3.3}% 22
\BOOKMARK [1][-]{section.3.4}{Modelo de Casos de Uso}{chapter.3}% 23
\BOOKMARK [2][-]{subsection.3.4.1}{Men\372 idiomas}{section.3.4}% 24
\BOOKMARK [2][-]{subsection.3.4.2}{Men\372 principal}{section.3.4}% 25
\BOOKMARK [2][-]{subsection.3.4.3}{Men\372 opciones}{section.3.4}% 26
\BOOKMARK [2][-]{subsection.3.4.4}{Men\372 elecci\363n de personajes y escenario}{section.3.4}% 27
\BOOKMARK [2][-]{subsection.3.4.5}{Lucha}{section.3.4}% 28
\BOOKMARK [2][-]{subsection.3.4.6}{Men\372 Pausa}{section.3.4}% 29
\BOOKMARK [2][-]{subsection.3.4.7}{Men\372 KO}{section.3.4}% 30
\BOOKMARK [1][-]{section.3.5}{Diagrama de secuencia}{chapter.3}% 31
\BOOKMARK [2][-]{subsection.3.5.1}{Men\372 idiomas}{section.3.5}% 32
\BOOKMARK [2][-]{subsection.3.5.2}{Men\372 principal}{section.3.5}% 33
\BOOKMARK [2][-]{subsection.3.5.3}{Men\372 opciones}{section.3.5}% 34
\BOOKMARK [2][-]{subsection.3.5.4}{Men\372 elecci\363n de personajes y escenario}{section.3.5}% 35
\BOOKMARK [2][-]{subsection.3.5.5}{Lucha}{section.3.5}% 36
\BOOKMARK [2][-]{subsection.3.5.6}{Men\372 Pausa}{section.3.5}% 37
\BOOKMARK [2][-]{subsection.3.5.7}{Men\372 KO}{section.3.5}% 38
\BOOKMARK [1][-]{section.3.6}{Contrato operaciones}{chapter.3}% 39
\BOOKMARK [2][-]{subsection.3.6.1}{Men\372 idiomas}{section.3.6}% 40
\BOOKMARK [2][-]{subsection.3.6.2}{Men\372 principal}{section.3.6}% 41
\BOOKMARK [2][-]{subsection.3.6.3}{Men\372 opciones}{section.3.6}% 42
\BOOKMARK [2][-]{subsection.3.6.4}{Men\372 elecci\363n de personajes y escenario}{section.3.6}% 43
\BOOKMARK [2][-]{subsection.3.6.5}{Lucha}{section.3.6}% 44
\BOOKMARK [2][-]{subsection.3.6.6}{Men\372 Pausa}{section.3.6}% 45
\BOOKMARK [2][-]{subsection.3.6.7}{Men\372 KO}{section.3.6}% 46
\BOOKMARK [1][-]{section.3.7}{Boceto pantalla}{chapter.3}% 47
\BOOKMARK [2][-]{subsection.3.7.1}{Men\372 idiomas}{section.3.7}% 48
\BOOKMARK [2][-]{subsection.3.7.2}{Men\372 principal}{section.3.7}% 49
\BOOKMARK [2][-]{subsection.3.7.3}{Men\372 opciones}{section.3.7}% 50
\BOOKMARK [2][-]{subsection.3.7.4}{Men\372 elecci\363n de personajes y escenario}{section.3.7}% 51
\BOOKMARK [2][-]{subsection.3.7.5}{Lucha}{section.3.7}% 52
\BOOKMARK [2][-]{subsection.3.7.6}{Men\372 Pausa}{section.3.7}% 53
\BOOKMARK [1][-]{section.3.8}{Resultado final}{chapter.3}% 54
\BOOKMARK [2][-]{subsection.3.8.1}{Men\372 idiomas}{section.3.8}% 55
\BOOKMARK [2][-]{subsection.3.8.2}{Men\372 principal}{section.3.8}% 56
\BOOKMARK [2][-]{subsection.3.8.3}{Men\372 opciones}{section.3.8}% 57
\BOOKMARK [2][-]{subsection.3.8.4}{Men\372 elecci\363n de personajes y escenario}{section.3.8}% 58
\BOOKMARK [2][-]{subsection.3.8.5}{Lucha}{section.3.8}% 59
\BOOKMARK [2][-]{subsection.3.8.6}{Men\372 Pausa}{section.3.8}% 60
\BOOKMARK [1][-]{section.3.9}{Navegaci\363n entre pantallas}{chapter.3}% 61
\BOOKMARK [0][-]{chapter.4}{Construcci\363n del Sistema}{part.2}% 62
\BOOKMARK [1][-]{section.4.1}{Organizaci\363n del repositorio}{chapter.4}% 63
\BOOKMARK [1][-]{section.4.2}{Entorno de Construcci\363n}{chapter.4}% 64
\BOOKMARK [2][-]{subsection.4.2.1}{Documentaci\363n}{section.4.2}% 65
\BOOKMARK [2][-]{subsection.4.2.2}{Videojuego}{section.4.2}% 66
\BOOKMARK [1][-]{section.4.3}{Bucle del juego}{chapter.4}% 67
\BOOKMARK [1][-]{section.4.4}{Composici\363n de los personajes}{chapter.4}% 68
\BOOKMARK [2][-]{subsection.4.4.1}{Malla \(Mesh\)}{section.4.4}% 69
\BOOKMARK [2][-]{subsection.4.4.2}{Preparaci\363n de la malla}{section.4.4}% 70
\BOOKMARK [2][-]{subsection.4.4.3}{Esqueleto \(Armature\)}{section.4.4}% 71
\BOOKMARK [2][-]{subsection.4.4.4}{Fisicas y colisiones}{section.4.4}% 72
\BOOKMARK [2][-]{subsection.4.4.5}{Nomenclatura}{section.4.4}% 73
\BOOKMARK [1][-]{section.4.5}{Mec\341nicas de personajes}{chapter.4}% 74
\BOOKMARK [2][-]{subsection.4.5.1}{Movimientos}{section.4.5}% 75
\BOOKMARK [2][-]{subsection.4.5.2}{Acciones}{section.4.5}% 76
\BOOKMARK [2][-]{subsection.4.5.3}{Grafo}{section.4.5}% 77
\BOOKMARK [2][-]{subsection.4.5.4}{IA}{section.4.5}% 78
\BOOKMARK [1][-]{section.4.6}{Ficheros .json}{chapter.4}% 79
\BOOKMARK [2][-]{subsection.4.6.1}{Ejemplo json de un personaje}{section.4.6}% 80
\BOOKMARK [1][-]{section.4.7}{Escenarios}{chapter.4}% 81
\BOOKMARK [1][-]{section.4.8}{Elementos del Juego}{chapter.4}% 82
\BOOKMARK [0][-]{chapter.5}{Pruebas del Sistema}{part.2}% 83
\BOOKMARK [1][-]{section.5.1}{Funciones empleadas para las pruebas}{chapter.5}% 84
\BOOKMARK [1][-]{section.5.2}{Ejemplos de uso}{chapter.5}% 85
\BOOKMARK [1][-]{section.5.3}{log.txt}{chapter.5}% 86
\BOOKMARK [1][-]{section.5.4}{Ejemplo}{chapter.5}% 87
\BOOKMARK [-1][-]{part.3}{III Ep\355logo}{}% 88
\BOOKMARK [0][-]{chapter.6}{Manual de usuario}{part.3}% 89
\BOOKMARK [1][-]{section.6.1}{Requisitos}{chapter.6}% 90
\BOOKMARK [2][-]{subsection.6.1.1}{Sitemas operativos}{section.6.1}% 91
\BOOKMARK [2][-]{subsection.6.1.2}{Requisitos m\355nimos de hardware}{section.6.1}% 92
\BOOKMARK [2][-]{subsection.6.1.3}{Requisitos recomendados de hardware}{section.6.1}% 93
\BOOKMARK [1][-]{section.6.2}{Instalaci\363n}{chapter.6}% 94
\BOOKMARK [2][-]{subsection.6.2.1}{Windows}{section.6.2}% 95
\BOOKMARK [2][-]{subsection.6.2.2}{Linux}{section.6.2}% 96
\BOOKMARK [1][-]{section.6.3}{Controles}{chapter.6}% 97
\BOOKMARK [1][-]{section.6.4}{Introducci\363n}{chapter.6}% 98
\BOOKMARK [1][-]{section.6.5}{Caracter\355sticas}{chapter.6}% 99
\BOOKMARK [1][-]{section.6.6}{Requisitos previos}{chapter.6}% 100
\BOOKMARK [1][-]{section.6.7}{Uso del sistema}{chapter.6}% 101
\BOOKMARK [0][-]{chapter.7}{Conclusiones}{part.3}% 102
\BOOKMARK [1][-]{section.7.1}{Objetivos alcanzados y lecciones aprendidas}{chapter.7}% 103
\BOOKMARK [1][-]{section.7.2}{Futuras mejoras}{chapter.7}% 104
\BOOKMARK [0][-]{chapter*.20}{Bibliograf\355a}{part.3}% 105
\BOOKMARK [0][-]{section*.21}{Informaci\363n sobre Licencia}{part.3}% 106
\BOOKMARK [0][-]{section*.22}{GNU Free Documentation License}{part.3}% 107
\BOOKMARK [1][-]{section*.23}{1. APPLICABILITY AND DEFINITIONS}{section*.22}% 108
\BOOKMARK [1][-]{section*.24}{2. VERBATIM COPYING}{section*.22}% 109
\BOOKMARK [1][-]{section*.25}{3. COPYING IN QUANTITY}{section*.22}% 110
\BOOKMARK [1][-]{section*.26}{4. MODIFICATIONS}{section*.22}% 111
\BOOKMARK [1][-]{section*.27}{5. COMBINING DOCUMENTS}{section*.22}% 112
\BOOKMARK [1][-]{section*.28}{6. COLLECTIONS OF DOCUMENTS}{section*.22}% 113
\BOOKMARK [1][-]{section*.29}{7. AGGREGATION WITH INDEPENDENT WORKS}{section*.22}% 114
\BOOKMARK [1][-]{section*.30}{8. TRANSLATION}{section*.22}% 115
\BOOKMARK [1][-]{section*.31}{9. TERMINATION}{section*.22}% 116
\BOOKMARK [1][-]{section*.32}{10. FUTURE REVISIONS OF THIS LICENSE}{section*.22}% 117
\BOOKMARK [1][-]{section*.33}{11. RELICENSING}{section*.22}% 118
\BOOKMARK [1][-]{section*.34}{ADDENDUM: How to use this License for your documents}{section*.22}% 119
